#
# There is insufficient memory for the Java Runtime Environment to continue.
# Native memory allocation (mmap) failed to map 195035136 bytes for committing reserved memory.
# Possible reasons:
#   The system is out of physical RAM or swap space
#   In 32 bit mode, the process size limit was hit
# Possible solutions:
#   Reduce memory load on the system
#   Increase physical memory or swap space
#   Check if swap backing store is full
#   Use 64 bit Java on a 64 bit OS
#   Decrease Java heap size (-Xmx/-Xms)
#   Decrease number of Java threads
#   Decrease Java thread stack sizes (-Xss)
#   Set larger code cache with -XX:ReservedCodeCacheSize=
# This output file may be truncated or incomplete.
#
#  Out of Memory Error (os_linux.cpp:2640), pid=9306, tid=0x00007f638e96d700
#
# JRE version: Java(TM) SE Runtime Environment (8.0_161-b12) (build 1.8.0_161-b12)
# Java VM: Java HotSpot(TM) 64-Bit Server VM (25.161-b12 mixed mode linux-amd64 compressed oops)
# Failed to write core dump. Core dumps have been disabled. To enable core dumping, try "ulimit -c unlimited" before starting Java again
#

---------------  T H R E A D  ---------------

Current thread (0x00007f63b4078800):  VMThread [stack: 0x00007f638e86d000,0x00007f638e96e000] [id=9317]

Stack: [0x00007f638e86d000,0x00007f638e96e000],  sp=0x00007f638e96c060,  free space=1020k
Native frames: (J=compiled Java code, j=interpreted, Vv=VM code, C=native code)
V  [libjvm.so+0xacf94a]  VMError::report_and_die()+0x2ba
V  [libjvm.so+0x50050b]  report_vm_out_of_memory(char const*, int, unsigned long, VMErrorType, char const*)+0x8b
V  [libjvm.so+0x92b133]  os::Linux::commit_memory_impl(char*, unsigned long, bool)+0x103
V  [libjvm.so+0x92b5c9]  os::pd_commit_memory(char*, unsigned long, unsigned long, bool)+0x29
V  [libjvm.so+0x924c0a]  os::commit_memory(char*, unsigned long, unsigned long, bool)+0x2a
V  [libjvm.so+0x99ab53]  PSVirtualSpace::expand_by(unsigned long)+0x53
V  [libjvm.so+0x98b410]  PSOldGen::expand(unsigned long)+0x170
V  [libjvm.so+0x98b61b]  PSOldGen::resize(unsigned long)+0x1cb
V  [libjvm.so+0x993321]  PSParallelCompact::invoke_no_policy(bool)+0x991
V  [libjvm.so+0x998c7d]  PSScavenge::invoke()+0x1ad
V  [libjvm.so+0x94f5a0]  ParallelScavengeHeap::failed_mem_allocate(unsigned long)+0x70
V  [libjvm.so+0xad13c7]  VM_ParallelGCFailedAllocation::doit()+0x97
V  [libjvm.so+0xad8ed5]  VM_Operation::evaluate()+0x55
V  [libjvm.so+0xad729a]  VMThread::evaluate_operation(VM_Operation*)+0xba
V  [libjvm.so+0xad761e]  VMThread::loop()+0x1ce
V  [libjvm.so+0xad7a90]  VMThread::run()+0x70
V  [libjvm.so+0x92da28]  java_start(Thread*)+0x108

VM_Operation (0x00007f635cf0feb0): ParallelGCFailedAllocation, mode: safepoint, requested by thread 0x00007f6338063000


---------------  P R O C E S S  ---------------

Java Threads: ( => current thread )
  0x00007f6338066800 JavaThread "pool-5-thread-4" [_thread_blocked, id=9469, stack(0x00007f635ca0f000,0x00007f635cb10000)]
  0x00007f6338065000 JavaThread "pool-5-thread-3" [_thread_blocked, id=9468, stack(0x00007f635cb10000,0x00007f635cc11000)]
  0x00007f6338063000 JavaThread "pool-5-thread-2" [_thread_blocked, id=9467, stack(0x00007f635ce11000,0x00007f635cf12000)]
  0x00007f6338061000 JavaThread "pool-6-thread-1" [_thread_blocked, id=9466, stack(0x00007f635cf12000,0x00007f635d013000)]
  0x00007f633805f800 JavaThread "pool-5-thread-1" [_thread_blocked, id=9465, stack(0x00007f635d013000,0x00007f635d114000)]
  0x00007f6350c58800 JavaThread "pool-3-thread-1" [_thread_blocked, id=9464, stack(0x00007f635d1f5000,0x00007f635d2f6000)]
  0x00007f6351347000 JavaThread "Cache update executor" [_thread_blocked, id=9463, stack(0x00007f635d4f6000,0x00007f635d5f7000)]
  0x00007f6350393000 JavaThread "File lock request listener" [_thread_in_native, id=9404, stack(0x00007f635eabf000,0x00007f635ebc0000)]
  0x00007f635000e000 JavaThread "Asynchronous log dispatcher for DefaultDaemonConnection: socket connection from /127.0.0.1:36168 to /127.0.0.1:53390" [_thread_blocked, id=9371, stack(0x00007f635f9fc000,0x00007f635fafd000)]
  0x00007f6358007000 JavaThread "Daemon worker" [_thread_blocked, id=9368, stack(0x00007f635fafd000,0x00007f635fbfe000)]
  0x00007f6358004000 JavaThread "Cancel handler" [_thread_blocked, id=9367, stack(0x00007f635fbfe000,0x00007f635fcff000)]
  0x00007f6358005800 JavaThread "Handler for socket connection from /127.0.0.1:36168 to /127.0.0.1:53390" [_thread_in_native, id=9366, stack(0x00007f635feff000,0x00007f6360000000)]
  0x00007f6364018000 JavaThread "Daemon" [_thread_blocked, id=9365, stack(0x00007f638c093000,0x00007f638c194000)]
  0x00007f63b4ce1000 JavaThread "Incoming local TCP Connector on port 36168" [_thread_in_native, id=9364, stack(0x00007f638c39b000,0x00007f638c49c000)]
  0x00007f63b4ca8800 JavaThread "pool-1-thread-1" [_thread_blocked, id=9363, stack(0x00007f638c49c000,0x00007f638c59d000)]
  0x00007f63b40e4000 JavaThread "Service Thread" daemon [_thread_blocked, id=9324, stack(0x00007f638da84000,0x00007f638db85000)]
  0x00007f63b40bf000 JavaThread "C1 CompilerThread2" daemon [_thread_blocked, id=9323, stack(0x00007f638db85000,0x00007f638dc86000)]
  0x00007f63b40bd000 JavaThread "C2 CompilerThread1" daemon [_thread_blocked, id=9322, stack(0x00007f638dc86000,0x00007f638dd87000)]
  0x00007f63b40ba000 JavaThread "C2 CompilerThread0" daemon [_thread_blocked, id=9321, stack(0x00007f638dd87000,0x00007f638de88000)]
  0x00007f63b40b8800 JavaThread "Signal Dispatcher" daemon [_thread_blocked, id=9320, stack(0x00007f638de88000,0x00007f638df89000)]
  0x00007f63b4085000 JavaThread "Finalizer" daemon [_thread_blocked, id=9319, stack(0x00007f638e66b000,0x00007f638e76c000)]
  0x00007f63b4080000 JavaThread "Reference Handler" daemon [_thread_blocked, id=9318, stack(0x00007f638e76c000,0x00007f638e86d000)]
  0x00007f63b400a800 JavaThread "main" [_thread_blocked, id=9309, stack(0x00007f63ba232000,0x00007f63ba333000)]

Other Threads:
=>0x00007f63b4078800 VMThread [stack: 0x00007f638e86d000,0x00007f638e96e000] [id=9317]
  0x00007f63b40e9000 WatcherThread [stack: 0x00007f638d983000,0x00007f638da84000] [id=9325]

VM state:at safepoint (normal execution)

VM Mutex/Monitor currently owned by a thread:  ([mutex/lock_event])
[0x00007f63b4006740] ExpandHeap_lock - owner thread: 0x00007f63b4078800
[0x00007f63b4006dc0] Threads_lock - owner thread: 0x00007f63b4078800
[0x00007f63b40072c0] Heap_lock - owner thread: 0x00007f6338063000

Heap:
 PSYoungGen      total 349696K, used 78694K [0x00000000e0000000, 0x0000000100000000, 0x0000000100000000)
  eden space 175104K, 0% used [0x00000000e0000000,0x00000000e0000000,0x00000000eab00000)
  from space 174592K, 45% used [0x00000000eab00000,0x00000000ef7d99e0,0x00000000f5580000)
  to   space 174592K, 0% used [0x00000000f5580000,0x00000000f5580000,0x0000000100000000)
 ParOldGen       total 608256K, used 608119K [0x00000000a0000000, 0x00000000c5200000, 0x00000000e0000000)
  object space 608256K, 99% used [0x00000000a0000000,0x00000000c51ddc80,0x00000000c5200000)
 Metaspace       used 54915K, capacity 56754K, committed 56960K, reserved 1097728K
  class space    used 7366K, capacity 7800K, committed 7808K, reserved 1048576K

Card table byte_map: [0x00007f63a3cbc000,0x00007f63a3fbd000] byte_map_base: 0x00007f63a37bc000

Marking Bits: (ParMarkBitMap*) 0x00007f63b9708920
 Begin Bits: [0x00007f63a06b8000, 0x00007f63a1eb8000)
 End Bits:   [0x00007f63a1eb8000, 0x00007f63a36b8000)

Polling page: 0x00007f63ba357000

CodeCache: size=245760Kb used=32880Kb max_used=33412Kb free=212879Kb
 bounds [0x00007f63a437d000, 0x00007f63a644d000, 0x00007f63b337d000]
 total_blobs=9382 nmethods=8629 adapters=666
 compilation: enabled

Compilation events (10 events):
Event: 99,520 Thread 0x00007f63b40bf000 10347       3       com.android.dx.dex.file.EncodedMethod::<init> (68 bytes)
Event: 99,521 Thread 0x00007f63b40bf000 nmethod 10347 0x00007f63a5c2ca90 code [0x00007f63a5c2cc40, 0x00007f63a5c2d0f8]
Event: 99,524 Thread 0x00007f63b40ba000 nmethod 10340 0x00007f63a5df2d50 code [0x00007f63a5df2f20, 0x00007f63a5df3758]
Event: 99,524 Thread 0x00007f63b40ba000 10342       4       com.android.dx.rop.code.LocalVariableInfo::<init> (82 bytes)
Event: 99,548 Thread 0x00007f63b40ba000 nmethod 10342 0x00007f63a5b5bad0 code [0x00007f63a5b5bce0, 0x00007f63a5b5c978]
Event: 99,548 Thread 0x00007f63b40ba000 10348       4       com.android.dx.rop.code.RegisterSpec::compareTo (95 bytes)
Event: 99,550 Thread 0x00007f63b40ba000 nmethod 10348 0x00007f63a5ce2a90 code [0x00007f63a5ce2c00, 0x00007f63a5ce2e38]
Event: 99,578 Thread 0x00007f63b40ba000 10349       4       com.android.dx.ssa.back.FirstFitLocalCombiningAllocator::handleLocalAssociatedOther (151 bytes)
Event: 99,609 Thread 0x00007f63b40ba000 nmethod 10349 0x00007f63a5d06250 code [0x00007f63a5d064a0, 0x00007f63a5d07310]
Event: 99,610 Thread 0x00007f63b40ba000 10350       4       com.android.dx.ssa.SsaMethod::onSourcesChanged (69 bytes)

GC Heap History (10 events):
Event: 95,548 GC heap after
Heap after GC invocations=53 (full 8):
 PSYoungGen      total 342016K, used 111775K [0x00000000e0000000, 0x0000000100000000, 0x0000000100000000)
  eden space 229888K, 0% used [0x00000000e0000000,0x00000000e0000000,0x00000000ee080000)
  from space 112128K, 99% used [0x00000000ee080000,0x00000000f4da7fb8,0x00000000f4e00000)
  to   space 156160K, 0% used [0x00000000f6780000,0x00000000f6780000,0x0000000100000000)
 ParOldGen       total 608256K, used 455865K [0x00000000a0000000, 0x00000000c5200000, 0x00000000e0000000)
  object space 608256K, 74% used [0x00000000a0000000,0x00000000bbd2e7e0,0x00000000c5200000)
 Metaspace       used 54914K, capacity 56754K, committed 56960K, reserved 1097728K
  class space    used 7366K, capacity 7800K, committed 7808K, reserved 1048576K
}
Event: 96,375 GC heap before
{Heap before GC invocations=54 (full 8):
 PSYoungGen      total 342016K, used 341663K [0x00000000e0000000, 0x0000000100000000, 0x0000000100000000)
  eden space 229888K, 100% used [0x00000000e0000000,0x00000000ee080000,0x00000000ee080000)
  from space 112128K, 99% used [0x00000000ee080000,0x00000000f4da7fb8,0x00000000f4e00000)
  to   space 156160K, 0% used [0x00000000f6780000,0x00000000f6780000,0x0000000100000000)
 ParOldGen       total 608256K, used 455865K [0x00000000a0000000, 0x00000000c5200000, 0x00000000e0000000)
  object space 608256K, 74% used [0x00000000a0000000,0x00000000bbd2e7e0,0x00000000c5200000)
 Metaspace       used 54914K, capacity 56754K, committed 56960K, reserved 1097728K
  class space    used 7366K, capacity 7800K, committed 7808K, reserved 1048576K
Event: 96,589 GC heap after
Heap after GC invocations=54 (full 8):
 PSYoungGen      total 331264K, used 149900K [0x00000000e0000000, 0x0000000100000000, 0x0000000100000000)
  eden space 175104K, 0% used [0x00000000e0000000,0x00000000e0000000,0x00000000eab00000)
  from space 156160K, 95% used [0x00000000f6780000,0x00000000ff9e3190,0x0000000100000000)
  to   space 174592K, 0% used [0x00000000eab00000,0x00000000eab00000,0x00000000f5580000)
 ParOldGen       total 608256K, used 455865K [0x00000000a0000000, 0x00000000c5200000, 0x00000000e0000000)
  object space 608256K, 74% used [0x00000000a0000000,0x00000000bbd2e7e0,0x00000000c5200000)
 Metaspace       used 54914K, capacity 56754K, committed 56960K, reserved 1097728K
  class space    used 7366K, capacity 7800K, committed 7808K, reserved 1048576K
}
Event: 97,006 GC heap before
{Heap before GC invocations=55 (full 8):
 PSYoungGen      total 331264K, used 325004K [0x00000000e0000000, 0x0000000100000000, 0x0000000100000000)
  eden space 175104K, 100% used [0x00000000e0000000,0x00000000eab00000,0x00000000eab00000)
  from space 156160K, 95% used [0x00000000f6780000,0x00000000ff9e3190,0x0000000100000000)
  to   space 174592K, 0% used [0x00000000eab00000,0x00000000eab00000,0x00000000f5580000)
 ParOldGen       total 608256K, used 455865K [0x00000000a0000000, 0x00000000c5200000, 0x00000000e0000000)
  object space 608256K, 74% used [0x00000000a0000000,0x00000000bbd2e7e0,0x00000000c5200000)
 Metaspace       used 54914K, capacity 56754K, committed 56960K, reserved 1097728K
  class space    used 7366K, capacity 7800K, committed 7808K, reserved 1048576K
Event: 97,241 GC heap after
Heap after GC invocations=55 (full 8):
 PSYoungGen      total 349696K, used 157609K [0x00000000e0000000, 0x0000000100000000, 0x0000000100000000)
  eden space 175104K, 0% used [0x00000000e0000000,0x00000000e0000000,0x00000000eab00000)
  from space 174592K, 90% used [0x00000000eab00000,0x00000000f44ea558,0x00000000f5580000)
  to   space 174592K, 0% used [0x00000000f5580000,0x00000000f5580000,0x0000000100000000)
 ParOldGen       total 608256K, used 476173K [0x00000000a0000000, 0x00000000c5200000, 0x00000000e0000000)
  object space 608256K, 78% used [0x00000000a0000000,0x00000000bd103778,0x00000000c5200000)
 Metaspace       used 54914K, capacity 56754K, committed 56960K, reserved 1097728K
  class space    used 7366K, capacity 7800K, committed 7808K, reserved 1048576K
}
Event: 97,727 GC heap before
{Heap before GC invocations=56 (full 8):
 PSYoungGen      total 349696K, used 332713K [0x00000000e0000000, 0x0000000100000000, 0x0000000100000000)
  eden space 175104K, 100% used [0x00000000e0000000,0x00000000eab00000,0x00000000eab00000)
  from space 174592K, 90% used [0x00000000eab00000,0x00000000f44ea558,0x00000000f5580000)
  to   space 174592K, 0% used [0x00000000f5580000,0x00000000f5580000,0x0000000100000000)
 ParOldGen       total 608256K, used 476173K [0x00000000a0000000, 0x00000000c5200000, 0x00000000e0000000)
  object space 608256K, 78% used [0x00000000a0000000,0x00000000bd103778,0x00000000c5200000)
 Metaspace       used 54914K, capacity 56754K, committed 56960K, reserved 1097728K
  class space    used 7366K, capacity 7800K, committed 7808K, reserved 1048576K
Event: 98,056 GC heap after
Heap after GC invocations=56 (full 8):
 PSYoungGen      total 349696K, used 129336K [0x00000000e0000000, 0x0000000100000000, 0x0000000100000000)
  eden space 175104K, 0% used [0x00000000e0000000,0x00000000e0000000,0x00000000eab00000)
  from space 174592K, 74% used [0x00000000f5580000,0x00000000fd3ce078,0x0000000100000000)
  to   space 174592K, 0% used [0x00000000eab00000,0x00000000eab00000,0x00000000f5580000)
 ParOldGen       total 608256K, used 531720K [0x00000000a0000000, 0x00000000c5200000, 0x00000000e0000000)
  object space 608256K, 87% used [0x00000000a0000000,0x00000000c07423c8,0x00000000c5200000)
 Metaspace       used 54914K, capacity 56754K, committed 56960K, reserved 1097728K
  class space    used 7366K, capacity 7800K, committed 7808K, reserved 1048576K
}
Event: 99,615 GC heap before
{Heap before GC invocations=57 (full 8):
 PSYoungGen      total 349696K, used 304440K [0x00000000e0000000, 0x0000000100000000, 0x0000000100000000)
  eden space 175104K, 100% used [0x00000000e0000000,0x00000000eab00000,0x00000000eab00000)
  from space 174592K, 74% used [0x00000000f5580000,0x00000000fd3ce078,0x0000000100000000)
  to   space 174592K, 0% used [0x00000000eab00000,0x00000000eab00000,0x00000000f5580000)
 ParOldGen       total 608256K, used 531720K [0x00000000a0000000, 0x00000000c5200000, 0x00000000e0000000)
  object space 608256K, 87% used [0x00000000a0000000,0x00000000c07423c8,0x00000000c5200000)
 Metaspace       used 54915K, capacity 56754K, committed 56960K, reserved 1097728K
  class space    used 7366K, capacity 7800K, committed 7808K, reserved 1048576K
Event: 99,898 GC heap after
Heap after GC invocations=57 (full 8):
 PSYoungGen      total 349696K, used 89307K [0x00000000e0000000, 0x0000000100000000, 0x0000000100000000)
  eden space 175104K, 0% used [0x00000000e0000000,0x00000000e0000000,0x00000000eab00000)
  from space 174592K, 51% used [0x00000000eab00000,0x00000000f0236ce8,0x00000000f5580000)
  to   space 174592K, 0% used [0x00000000f5580000,0x00000000f5580000,0x0000000100000000)
 ParOldGen       total 608256K, used 604345K [0x00000000a0000000, 0x00000000c5200000, 0x00000000e0000000)
  object space 608256K, 99% used [0x00000000a0000000,0x00000000c4e2e7d0,0x00000000c5200000)
 Metaspace       used 54915K, capacity 56754K, committed 56960K, reserved 1097728K
  class space    used 7366K, capacity 7800K, committed 7808K, reserved 1048576K
}
Event: 99,986 GC heap before
{Heap before GC invocations=58 (full 9):
 PSYoungGen      total 349696K, used 89307K [0x00000000e0000000, 0x0000000100000000, 0x0000000100000000)
  eden space 175104K, 0% used [0x00000000e0000000,0x00000000e0000000,0x00000000eab00000)
  from space 174592K, 51% used [0x00000000eab00000,0x00000000f0236ce8,0x00000000f5580000)
  to   space 174592K, 0% used [0x00000000f5580000,0x00000000f5580000,0x0000000100000000)
 ParOldGen       total 608256K, used 604345K [0x00000000a0000000, 0x00000000c5200000, 0x00000000e0000000)
  object space 608256K, 99% used [0x00000000a0000000,0x00000000c4e2e7d0,0x00000000c5200000)
 Metaspace       used 54915K, capacity 56754K, committed 56960K, reserved 1097728K
  class space    used 7366K, capacity 7800K, committed 7808K, reserved 1048576K

Deoptimization events (10 events):
Event: 97,412 Thread 0x00007f6338065000 Uncommon trap: reason=unstable_if action=reinterpret pc=0x00007f63a5de168c method=com.android.dx.rop.code.RegisterSpec.equals(ILcom/android/dx/rop/type/TypeBearer;Lcom/android/dx/rop/code/LocalItem;)Z @ 31
Event: 97,419 Thread 0x00007f6338065000 Uncommon trap: reason=bimorphic action=maybe_recompile pc=0x00007f63a63a8910 method=com.android.dx.cf.code.BytecodeArray.parseInstruction(ILcom/android/dx/cf/code/BytecodeArray$Visitor;)I @ 1019
Event: 97,419 Thread 0x00007f6338065000 Uncommon trap: reason=bimorphic action=maybe_recompile pc=0x00007f63a63a8910 method=com.android.dx.cf.code.BytecodeArray.parseInstruction(ILcom/android/dx/cf/code/BytecodeArray$Visitor;)I @ 1019
Event: 97,457 Thread 0x00007f6338065000 Uncommon trap: reason=unloaded action=reinterpret pc=0x00007f63a6364798 method=com.android.dx.dex.cf.CfTranslator.coerceConstant(Lcom/android/dx/rop/cst/TypedConstant;Lcom/android/dx/rop/type/Type;)Lcom/android/dx/rop/cst/TypedConstant; @ 104
Event: 98,635 Thread 0x00007f6338065000 Uncommon trap: reason=null_check action=make_not_entrant pc=0x00007f63a5c35510 method=com.android.dx.rop.cst.CstString.equals(Ljava/lang/Object;)Z @ 1
Event: 99,108 Thread 0x00007f6338065000 Uncommon trap: reason=unstable_if action=reinterpret pc=0x00007f63a4e7c220 method=java.util.concurrent.ConcurrentHashMap.addCount(JI)V @ 209
Event: 99,130 Thread 0x00007f6338063000 Uncommon trap: reason=null_check action=make_not_entrant pc=0x00007f63a640576c method=java.util.concurrent.ConcurrentHashMap$TreeBin.<init>(Ljava/util/concurrent/ConcurrentHashMap$TreeNode;)V @ 26
Event: 99,143 Thread 0x00007f6350c58800 Uncommon trap: reason=null_check action=make_not_entrant pc=0x00007f63a6417320 method=java.util.concurrent.ConcurrentHashMap$TreeBin.<init>(Ljava/util/concurrent/ConcurrentHashMap$TreeNode;)V @ 26
Event: 99,189 Thread 0x00007f6350c58800 Uncommon trap: reason=null_check action=make_not_entrant pc=0x00007f63a63f806c method=java.util.concurrent.ConcurrentHashMap$TreeBin.<init>(Ljava/util/concurrent/ConcurrentHashMap$TreeNode;)V @ 26
Event: 99,579 Thread 0x00007f6350c58800 Uncommon trap: reason=class_check action=maybe_recompile pc=0x00007f63a5ff5310 method=com.android.dx.cf.attrib.AttConstantValue.<init>(Lcom/android/dx/rop/cst/TypedConstant;)V @ 28

Classes redefined (0 events):
No events

Internal exceptions (10 events):
Event: 58,843 Thread 0x00007f6358007000 Exception <a 'java/lang/NoSuchMethodError': <clinit>> (0x00000000e1cfdc38) thrown at [/HUDSON/workspace/8-2-build-linux-amd64/jdk8u161/10277/hotspot/src/share/vm/prims/jni.cpp, line 1613]
Event: 66,796 Thread 0x00007f6338065000 Implicit null exception at 0x00007f63a51b2622 to 0x00007f63a51b2713
Event: 67,832 Thread 0x00007f6338063000 Implicit null exception at 0x00007f63a5c29ba9 to 0x00007f63a5c29d15
Event: 67,832 Thread 0x00007f6338063000 Implicit null exception at 0x00007f63a5daa882 to 0x00007f63a5dab2d9
Event: 97,355 Thread 0x00007f6338065000 Implicit null exception at 0x00007f63a5ce1114 to 0x00007f63a5ce13f1
Event: 97,412 Thread 0x00007f6338065000 Implicit null exception at 0x00007f63a5de13b9 to 0x00007f63a5de1675
Event: 98,635 Thread 0x00007f6338065000 Implicit null exception at 0x00007f63a5c3540c to 0x00007f63a5c35503
Event: 99,130 Thread 0x00007f6338063000 Implicit null exception at 0x00007f63a640436f to 0x00007f63a64056fd
Event: 99,143 Thread 0x00007f6350c58800 Implicit null exception at 0x00007f63a6415a2c to 0x00007f63a64172b9
Event: 99,189 Thread 0x00007f6350c58800 Implicit null exception at 0x00007f63a63f65b1 to 0x00007f63a63f7fe5

Events (10 events):
Event: 99,288 Thread 0x00007f63b40bf000 flushing nmethod 0x00007f63a5d46210
Event: 99,303 Thread 0x00007f63b40bf000 flushing nmethod 0x00007f63a6082b10
Event: 99,303 Thread 0x00007f63b40bf000 flushing nmethod 0x00007f63a60c7490
Event: 99,303 Thread 0x00007f63b40bf000 flushing nmethod 0x00007f63a60ed9d0
Event: 99,500 Thread 0x00007f6338063000 DEOPT PACKING pc=0x00007f63a640fc3e sp=0x00007f635cf104e0
Event: 99,500 Thread 0x00007f6338063000 DEOPT UNPACKING pc=0x00007f63a43c4784 sp=0x00007f635cf102e8 mode 0
Event: 99,579 Thread 0x00007f6350c58800 Uncommon trap: trap_request=0xffffffde fr.pc=0x00007f63a5ff5310
Event: 99,579 Thread 0x00007f6350c58800 DEOPT PACKING pc=0x00007f63a5ff5310 sp=0x00007f635d2f3910
Event: 99,579 Thread 0x00007f6350c58800 DEOPT UNPACKING pc=0x00007f63a43c273a sp=0x00007f635d2f37f8 mode 2
Event: 99,615 Executing VM operation: ParallelGCFailedAllocation


Dynamic libraries:
00400000-00401000 r-xp 00000000 08:06 828009                             /usr/lib/jvm/java-8-oracle/bin/java
00600000-00601000 rw-p 00000000 08:06 828009                             /usr/lib/jvm/java-8-oracle/bin/java
01ead000-01ece000 rw-p 00000000 00:00 0                                  [heap]
a0000000-c5200000 rw-p 00000000 00:00 0 
d0c00000-e0000000 ---p 00000000 00:00 0 
e0000000-100000000 rw-p 00000000 00:00 0 
100000000-1007a0000 rw-p 00000000 00:00 0 
1007a0000-140000000 ---p 00000000 00:00 0 
7f631c000000-7f631c050000 rw-p 00000000 00:00 0 
7f631c050000-7f6320000000 ---p 00000000 00:00 0 
7f6324000000-7f632403c000 rw-p 00000000 00:00 0 
7f632403c000-7f6328000000 ---p 00000000 00:00 0 
7f6328000000-7f6328021000 rw-p 00000000 00:00 0 
7f6328021000-7f632c000000 ---p 00000000 00:00 0 
7f632c000000-7f632c060000 rw-p 00000000 00:00 0 
7f632c060000-7f6330000000 ---p 00000000 00:00 0 
7f6330000000-7f6330021000 rw-p 00000000 00:00 0 
7f6330021000-7f6334000000 ---p 00000000 00:00 0 
7f6334000000-7f6334039000 rw-p 00000000 00:00 0 
7f6334039000-7f6338000000 ---p 00000000 00:00 0 
7f6338000000-7f633824f000 rw-p 00000000 00:00 0 
7f633824f000-7f633c000000 ---p 00000000 00:00 0 
7f633c000000-7f633c021000 rw-p 00000000 00:00 0 
7f633c021000-7f6340000000 ---p 00000000 00:00 0 
7f6340000000-7f6340021000 rw-p 00000000 00:00 0 
7f6340021000-7f6344000000 ---p 00000000 00:00 0 
7f6344000000-7f6344021000 rw-p 00000000 00:00 0 
7f6344021000-7f6348000000 ---p 00000000 00:00 0 
7f6348000000-7f6348021000 rw-p 00000000 00:00 0 
7f6348021000-7f634c000000 ---p 00000000 00:00 0 
7f634c000000-7f634c021000 rw-p 00000000 00:00 0 
7f634c021000-7f6350000000 ---p 00000000 00:00 0 
7f6350000000-7f63513b7000 rw-p 00000000 00:00 0 
7f63513b7000-7f6354000000 ---p 00000000 00:00 0 
7f6354000000-7f6354021000 rw-p 00000000 00:00 0 
7f6354021000-7f6358000000 ---p 00000000 00:00 0 
7f6358000000-7f6358021000 rw-p 00000000 00:00 0 
7f6358021000-7f635c000000 ---p 00000000 00:00 0 
7f635ca0e000-7f635ca0f000 rw-p 00000000 00:00 0 
7f635ca0f000-7f635ca12000 ---p 00000000 00:00 0 
7f635ca12000-7f635cb10000 rw-p 00000000 00:00 0 
7f635cb10000-7f635cb13000 ---p 00000000 00:00 0 
7f635cb13000-7f635ce11000 rw-p 00000000 00:00 0 
7f635ce11000-7f635ce14000 ---p 00000000 00:00 0 
7f635ce14000-7f635cf12000 rw-p 00000000 00:00 0 
7f635cf12000-7f635cf15000 ---p 00000000 00:00 0 
7f635cf15000-7f635d013000 rw-p 00000000 00:00 0 
7f635d013000-7f635d016000 ---p 00000000 00:00 0 
7f635d016000-7f635d114000 rw-p 00000000 00:00 0 
7f635d114000-7f635d1f5000 r--s 00aa4000 08:06 2014859                    /home/linuxp/EventPopayan/app/build/intermediates/transforms/jarMerging/debug/jars/1/1f/combined.jar
7f635d1f5000-7f635d1f8000 ---p 00000000 00:00 0 
7f635d1f8000-7f635d4f6000 rw-p 00000000 00:00 0 
7f635d4f6000-7f635d4f9000 ---p 00000000 00:00 0 
7f635d4f9000-7f635d7f7000 rw-p 00000000 00:00 0 
7f635d7f7000-7f635d9f7000 rw-p 00000000 00:00 0 
7f635d9f7000-7f635dbf7000 rw-p 00000000 00:00 0 
7f635dbf7000-7f635ddf7000 rw-p 00000000 00:00 0 
7f635ddf7000-7f635de0a000 r--s 00345000 08:06 811796                     /usr/lib/jvm/java-8-oracle/jre/lib/resources.jar
7f635de0a000-7f635e00a000 rw-p 00000000 00:00 0 
7f635e00a000-7f635e20a000 rw-p 00000000 00:00 0 
7f635e20a000-7f635e40a000 rw-p 00000000 00:00 0 
7f635e40a000-7f635e60a000 rw-p 00000000 00:00 0 
7f635e60a000-7f635e80a000 rw-p 00000000 00:00 0 
7f635e80a000-7f635e80b000 r--s 00001000 08:06 1752533                    /home/linuxp/.gradle/caches/jars-2/cmhx5eetujk7j30d3nllwxyrlnugzjw/annotations-25.3.3.jar
7f635e80b000-7f635e813000 r--s 000a8000 08:06 1752532                    /home/linuxp/.gradle/caches/jars-2/lp0h431tl0554nh1vx6zomcvteflkp/lombok-ast-0.2.3.jar
7f635e813000-7f635e827000 r--s 000b4000 08:06 1752531                    /home/linuxp/.gradle/caches/jars-2/hgvw6szzawm3evod5l2d6iutfug31w0/uast-162.2228.14.jar
7f635e827000-7f635e829000 r--s 0000d000 08:06 1752530                    /home/linuxp/.gradle/caches/jars-2/7pwz1bowgakb1eux9ezb56jlturgsyi/commons-codec-1.4.jar
7f635e829000-7f635e82b000 r--s 0000d000 08:06 1752529                    /home/linuxp/.gradle/caches/jars-2/9dj1m0eyooi5qt13735vz8fpkl3cnfy/commons-logging-1.1.1.jar
7f635e82b000-7f635e830000 r--s 00028000 08:06 1752528                    /home/linuxp/.gradle/caches/jars-2/62lv0fe9b3xbqe57f6ljy5upwi7mf6k/httpcore-4.1.jar
7f635e830000-7f635e834000 r--s 0002f000 08:06 1752527                    /home/linuxp/.gradle/caches/jars-2/gsg5n52frsvw6sx0swqqe2hwijwdcf0/jimfs-1.1.jar
7f635e834000-7f635e835000 r--s 00004000 08:06 1752526                    /home/linuxp/.gradle/caches/jars-2/lxs252id0979odjrerlctkb26c2vj95/annotations-12.0.jar
7f635e835000-7f635e836000 r--s 00004000 08:06 1752525                    /home/linuxp/.gradle/caches/jars-2/9kn99dr0rulyl67sct1ephwcop56l61/asm-analysis-5.0.4.jar
7f635e836000-7f635e83a000 r--s 00040000 08:06 1752524                    /home/linuxp/.gradle/caches/jars-2/ccvn7yglm4blceovs70fngoac1eyn4f/lint-api-25.3.3.jar
7f635e83a000-7f635e83b000 r--s 0000a000 08:06 1752523                    /home/linuxp/.gradle/caches/jars-2/nwyg9io65lv6jvmwit2wq82xnnxd7ia/kxml2-2.3.0.jar
7f635e83b000-7f635e83d000 r--s 00005000 08:06 1752522                    /home/linuxp/.gradle/caches/jars-2/i6hc1uuj8e9ck59slmzdyz78ydn8sr6/httpmime-4.1.jar
7f635e83d000-7f635e845000 r--s 0004e000 08:06 1752521                    /home/linuxp/.gradle/caches/jars-2/7503wa5irssz0xxahv1xb82p2dl7rr2/httpclient-4.1.1.jar
7f635e845000-7f635e84c000 r--s 00053000 08:06 1752520                    /home/linuxp/.gradle/caches/jars-2/jgkfvs4eqggj7qsyw1f5d3up57hanj1/commons-compress-1.8.1.jar
7f635e84c000-7f635e851000 r--s 0002a000 08:06 1752519                    /home/linuxp/.gradle/caches/jars-2/je8f027qcr1z1egw08byp1ybxbp9kko/gson-2.2.4.jar
7f635e851000-7f635e856000 r--s 0002e000 08:06 1752518                    /home/linuxp/.gradle/caches/jars-2/s427p2wh0tfza0xa8qijgx107eeevyl/repository-25.3.3.jar
7f635e856000-7f635e858000 r--s 00006000 08:06 1752517                    /home/linuxp/.gradle/caches/jars-2/e2s952s6co8tps89l80r4riixwqo2oe/dvlib-25.3.3.jar
7f635e858000-7f635e85a000 r--s 00013000 08:06 1752516                    /home/linuxp/.gradle/caches/jars-2/s02k517nvrh8cbp2c8dz4slqska6dj9/layoutlib-api-25.3.3.jar
7f635e85a000-7f635e86a000 r--s 000d5000 08:06 1752514                    /home/linuxp/.gradle/caches/jars-2/qzf32gp9kej4w4hlbabft6tplu74cj3/proguard-base-5.3.2.jar
7f635e86a000-7f635e881000 r--s 00154000 08:06 1752511                    /home/linuxp/.gradle/caches/jars-2/sfeivjswzitn6n0fnjx3ueszz8gv8o1/antlr4-4.5.3.jar
7f635e881000-7f635e8ac000 r--s 001fc000 08:06 1752509                    /home/linuxp/.gradle/caches/jars-2/nxjrjftly2xksl8o0wqgivu5netfu2x/guava-18.0.jar
7f635e8ac000-7f635e8bf000 r--s 00241000 08:06 1752508                    /home/linuxp/.gradle/caches/jars-2/9yuekvg4qerfitq3xec0iyckuw3hwaq/ecj-4.6.1.jar
7f635e8bf000-7f635eabf000 rw-p 00000000 00:00 0 
7f635eabf000-7f635eac2000 ---p 00000000 00:00 0 
7f635eac2000-7f635edc0000 rw-p 00000000 00:00 0 
7f635edc0000-7f635efc0000 rw-p 00000000 00:00 0 
7f635efc0000-7f635efc5000 r--s 00058000 08:06 1752515                    /home/linuxp/.gradle/caches/jars-2/st159835qgxm0l87oqrnhayxos4lc1n/asm-debug-all-5.0.1.jar
7f635efc5000-7f635efc8000 r--s 00033000 08:06 1752513                    /home/linuxp/.gradle/caches/jars-2/nz9sndmr8b4xbj4xulkaciy5kdbyfiz/juniversalchardet-1.0.3.jar
7f635efc8000-7f635efcc000 r--s 0002a000 08:06 1752512                    /home/linuxp/.gradle/caches/jars-2/krbpn9xjn1qymukyx8cc5l799ty1v3h/commons-io-2.4.jar
7f635efcc000-7f635efce000 r--s 00002000 08:06 1752510                    /home/linuxp/.gradle/caches/jars-2/rh2ip1x2zziz26tr3qzudtz088pqsb2/baseLibrary-2.3.3.jar
7f635efce000-7f635efd5000 r--s 000d9000 08:06 1752507                    /home/linuxp/.gradle/caches/jars-2/ak89aa8liqmr44u7r08njntn6oehe0z/lint-checks-25.3.3.jar
7f635efd5000-7f635efd7000 r--s 00006000 08:06 1752506                    /home/linuxp/.gradle/caches/jars-2/6phgj9ki3jl3p5epzkqoo8pr6kur40b/asm-tree-5.0.4.jar
7f635efd7000-7f635f00a000 r--s 00203000 08:06 1752505                    /home/linuxp/.gradle/caches/jars-2/hj0bfvxu9cq7hkwmecvp0kg137or3hh/bcprov-jdk15on-1.48.jar
7f635f00a000-7f635f018000 r--s 00081000 08:06 1752504                    /home/linuxp/.gradle/caches/jars-2/4r7xli0tz94y0wfjrdyjxlxar3g1pb9/bcpkix-jdk15on-1.48.jar
7f635f018000-7f635f01a000 r--s 00002000 08:06 1752503                    /home/linuxp/.gradle/caches/jars-2/f32bh5uivuf69ecz2j8hl96ksnqdh7v/javawriter-2.5.0.jar
7f635f01a000-7f635f01c000 r--s 00004000 08:06 1752502                    /home/linuxp/.gradle/caches/jars-2/j6s1upogkwo00sygdsekzj4fx0i75uy/tracker-25.3.3.jar
7f635f01c000-7f635f01d000 r--s 00005000 08:06 1752501                    /home/linuxp/.gradle/caches/jars-2/4svya0t1s9wyo35ycd3atidsaoo6w7e/shared-25.3.3.jar
7f635f01d000-7f635f02b000 r--s 00147000 08:06 1752500                    /home/linuxp/.gradle/caches/jars-2/qx6695c5ocd9swxv7wqtxor3plyb4b7/protos-25.3.3.jar
7f635f02b000-7f635f02c000 r--s 00001000 08:06 1752499                    /home/linuxp/.gradle/caches/jars-2/bqo69msswbvaagsh45hf1tq02v21sml/jill-api-0.10.0.jar
7f635f02c000-7f635f02e000 r--s 00003000 08:06 1752498                    /home/linuxp/.gradle/caches/jars-2/7pldadygbci34ql8thws797g29k1uhh/jack-api-0.13.0.jar
7f635f02e000-7f635f034000 r--s 0004a000 08:06 1752497                    /home/linuxp/.gradle/caches/jars-2/euoqfzf5y1sibp9ul8mcz0wovj380eo/ddmlib-25.3.3.jar
7f635f034000-7f635f037000 r--s 00022000 08:06 1752496                    /home/linuxp/.gradle/caches/jars-2/a81bg2yxzmumashablwecaj0ksz6tmj/manifest-merger-25.3.3.jar
7f635f037000-7f635f03a000 r--s 0001c000 08:06 1752495                    /home/linuxp/.gradle/caches/jars-2/l6cnyee1vojrkkbpp6qwgpf30shmrja/common-25.3.3.jar
7f635f03a000-7f635f043000 r--s 00089000 08:06 1752494                    /home/linuxp/.gradle/caches/jars-2/m0t6h8af70sdgxvkj522jy01i14mnb8/sdk-common-25.3.3.jar
7f635f043000-7f635f04d000 r--s 00098000 08:06 1752493                    /home/linuxp/.gradle/caches/jars-2/28c9ykhc782k8jmlrnbnccai34hziki/sdklib-25.3.3.jar
7f635f04d000-7f635f04e000 r--s 00002000 08:06 1752492                    /home/linuxp/.gradle/caches/jars-2/4dod7a1p5hoai4v37pxbcg65bbahvg2/builder-test-api-2.3.3.jar
7f635f04e000-7f635f051000 r--s 00006000 08:06 1752491                    /home/linuxp/.gradle/caches/jars-2/omk02asobup8sgd6qxom3ej5bg94z2r/builder-model-2.3.3.jar
7f635f051000-7f635f060000 r--s 00130000 08:06 1752490                    /home/linuxp/.gradle/caches/jars-2/cr6zkqpx14lor9zdtmo49qpc7y8r8p4/protobuf-java-3.0.0.jar
7f635f060000-7f635f062000 r--s 0000f000 08:06 1752489                    /home/linuxp/.gradle/caches/jars-2/rvfyugrlu5tbpz51p98og0qsxamjq4k/jopt-simple-4.9.jar
7f635f062000-7f635f066000 r--s 0001f000 08:06 1752488                    /home/linuxp/.gradle/caches/jars-2/nq3fzqkrrm37ob61z4iu5qdbh368uat/org.jacoco.report-0.7.5.201505241946.jar
7f635f066000-7f635f06a000 r--s 0001d000 08:06 1752487                    /home/linuxp/.gradle/caches/jars-2/3kxkmcckmk40ron92zhbm0qjo9l4bkl/org.jacoco.core-0.7.5.201505241946.jar
7f635f06a000-7f635f06c000 r--s 00002000 08:06 1752486                    /home/linuxp/.gradle/caches/jars-2/m4m0pzb4gmaeh0in5g2xc4bxeuwt828/proguard-gradle-5.3.2.jar
7f635f06c000-7f635f082000 r--s 00163000 08:06 1752479                    /home/linuxp/.gradle/caches/jars-2/nyg71b5n2lzymmwh5vbtmvjiby07k4g/builder-2.3.3.jar
7f635f082000-7f635f282000 rw-p 00000000 00:00 0 
7f635f282000-7f635f482000 rw-p 00000000 00:00 0 
7f635f482000-7f635f682000 rw-p 00000000 00:00 0 
7f635f682000-7f635f6fb000 r--s 010f9000 08:06 811846                     /usr/lib/jvm/java-8-oracle/lib/tools.jar
7f635f6fb000-7f635f8fb000 rw-p 00000000 00:00 0 
7f635f8fb000-7f635f8fe000 ---p 00000000 00:00 0 
7f635f8fe000-7f635f9fc000 rw-p 00000000 00:00 0 
7f635f9fc000-7f635f9ff000 ---p 00000000 00:00 0 
7f635f9ff000-7f635fafd000 rw-p 00000000 00:00 0 
7f635fafd000-7f635fb00000 ---p 00000000 00:00 0 
7f635fb00000-7f635fbfe000 rw-p 00000000 00:00 0 
7f635fbfe000-7f635fc01000 ---p 00000000 00:00 0 
7f635fc01000-7f635feff000 rw-p 00000000 00:00 0 
7f635feff000-7f635ff02000 ---p 00000000 00:00 0 
7f635ff02000-7f6360000000 rw-p 00000000 00:00 0 
7f6360000000-7f6360021000 rw-p 00000000 00:00 0 
7f6360021000-7f6364000000 ---p 00000000 00:00 0 
7f6364000000-7f636406a000 rw-p 00000000 00:00 0 
7f636406a000-7f6368000000 ---p 00000000 00:00 0 
7f6368000000-7f6368021000 rw-p 00000000 00:00 0 
7f6368021000-7f636c000000 ---p 00000000 00:00 0 
7f636c000000-7f636c021000 rw-p 00000000 00:00 0 
7f636c021000-7f6370000000 ---p 00000000 00:00 0 
7f6370000000-7f63729f0000 rw-p 00000000 00:00 0 
7f63729f0000-7f6374000000 ---p 00000000 00:00 0 
7f6374000000-7f6374a97000 rw-p 00000000 00:00 0 
7f6374a97000-7f6378000000 ---p 00000000 00:00 0 
7f6378000000-7f6378021000 rw-p 00000000 00:00 0 
7f6378021000-7f637c000000 ---p 00000000 00:00 0 
7f637c000000-7f637e20f000 rw-p 00000000 00:00 0 
7f637e20f000-7f6380000000 ---p 00000000 00:00 0 
7f6380000000-7f6380021000 rw-p 00000000 00:00 0 
7f6380021000-7f6384000000 ---p 00000000 00:00 0 
7f6384000000-7f6384021000 rw-p 00000000 00:00 0 
7f6384021000-7f6388000000 ---p 00000000 00:00 0 
7f6388000000-7f638831a000 rw-p 00000000 00:00 0 
7f638831a000-7f638c000000 ---p 00000000 00:00 0 
7f638c000000-7f638c002000 r--s 00009000 08:06 1752485                    /home/linuxp/.gradle/caches/jars-2/ajvcvdu66lc9e3tvvipxtuq48i9bbkc/asm-commons-5.0.4.jar
7f638c002000-7f638c004000 r--s 0000c000 08:06 1752484                    /home/linuxp/.gradle/caches/jars-2/1laz1ygmxoc408r7nwqs1q8uk8r236d/asm-5.0.4.jar
7f638c004000-7f638c009000 r--s 0002c000 08:06 1752483                    /home/linuxp/.gradle/caches/jars-2/3mlasgi8oo9o7oa12526198jui9zmp2/compilerCommon-2.3.3.jar
7f638c009000-7f638c00a000 r--s 00002000 08:06 1752482                    /home/linuxp/.gradle/caches/jars-2/73l309uzm0ila7rdaaxteq0ng4ayf2y/gradle-api-2.3.3.jar
7f638c00a000-7f638c00b000 r--s 00000000 08:06 1752481                    /home/linuxp/.gradle/caches/jars-2/tlyajppf8woug00g686fx5mchf8iv3o/transform-api-2.0.0-deprecated-use-gradle-api.jar
7f638c00b000-7f638c010000 r--s 0005e000 08:06 1752480                    /home/linuxp/.gradle/caches/jars-2/k2xtosjt0in0zj7mpwvctw6iznt93uh/lint-25.3.3.jar
7f638c010000-7f638c02f000 r--s 001ca000 08:06 1752478                    /home/linuxp/.gradle/caches/jars-2/5fwyvjq1ai8mdh1mluqxidj1wo7rls8/gradle-core-2.3.3.jar
7f638c02f000-7f638c031000 r--s 00007000 08:06 1065616                    /home/linuxp/.gradle/caches/modules-2/files-2.1/com.google.gms/google-services/3.1.0/166ae4e6acd03b7bbebe221ffa54bc039fece1b9/google-services-3.1.0.jar
7f638c031000-7f638c033000 r--s 0000d000 08:06 1752477                    /home/linuxp/.gradle/caches/jars-2/mel54vauze7hczg2p6nebauqz8s53sj/gradle-2.3.3.jar
7f638c033000-7f638c036000 ---p 00000000 00:00 0 
7f638c036000-7f638c06c000 rw-p 00000000 00:00 0 
7f638c06c000-7f638c06d000 r--p 00000000 00:00 0 
7f638c06d000-7f638c093000 r--p 00000000 08:06 1200539                    /usr/share/locale-langpack/es/LC_MESSAGES/libc.mo
7f638c093000-7f638c096000 ---p 00000000 00:00 0 
7f638c096000-7f638c194000 rw-p 00000000 00:00 0 
7f638c194000-7f638c19b000 r--s 00000000 08:06 1124942                    /usr/lib/x86_64-linux-gnu/gconv/gconv-modules.cache
7f638c19b000-7f638c39b000 rw-p 00000000 00:00 0 
7f638c39b000-7f638c39e000 ---p 00000000 00:00 0 
7f638c39e000-7f638c49c000 rw-p 00000000 00:00 0 
7f638c49c000-7f638c49f000 ---p 00000000 00:00 0 
7f638c49f000-7f638c59d000 rw-p 00000000 00:00 0 
7f638c59d000-7f638c5a6000 r-xp 00000000 08:06 805625                     /usr/lib/jvm/java-8-oracle/jre/lib/amd64/libmanagement.so
7f638c5a6000-7f638c7a5000 ---p 00009000 08:06 805625                     /usr/lib/jvm/java-8-oracle/jre/lib/amd64/libmanagement.so
7f638c7a5000-7f638c7a6000 rw-p 00008000 08:06 805625                     /usr/lib/jvm/java-8-oracle/jre/lib/amd64/libmanagement.so
7f638c7a6000-7f638c7ab000 r--s 0009d000 08:06 811798                     /usr/lib/jvm/java-8-oracle/jre/lib/jsse.jar
7f638c7ab000-7f638c7ad000 r--s 00007000 08:06 1738186                    /home/linuxp/.gradle/wrapper/dists/gradle-3.3-all/55gk2rcmfc6p2dg9u9ohc3hw9/gradle-3.3/lib/plugins/gradle-tooling-api-builders-3.3.jar
7f638c7ad000-7f638c7b0000 r--s 00009000 08:06 1738179                    /home/linuxp/.gradle/wrapper/dists/gradle-3.3-all/55gk2rcmfc6p2dg9u9ohc3hw9/gradle-3.3/lib/plugins/gradle-testing-native-3.3.jar
7f638c7b0000-7f638c7b6000 r--s 00033000 08:06 1738254                    /home/linuxp/.gradle/wrapper/dists/gradle-3.3-all/55gk2rcmfc6p2dg9u9ohc3hw9/gradle-3.3/lib/plugins/snakeyaml-1.6.jar
7f638c7b6000-7f638c7b8000 r--s 00006000 08:06 1738253                    /home/linuxp/.gradle/wrapper/dists/gradle-3.3-all/55gk2rcmfc6p2dg9u9ohc3hw9/gradle-3.3/lib/plugins/jcommander-1.12.jar
7f638c7b8000-7f638c7bd000 r--s 00040000 08:06 1738252                    /home/linuxp/.gradle/wrapper/dists/gradle-3.3-all/55gk2rcmfc6p2dg9u9ohc3hw9/gradle-3.3/lib/plugins/bsh-2.0b4.jar
7f638c7bd000-7f638c7bf000 r--s 00009000 08:06 1738260                    /home/linuxp/.gradle/wrapper/dists/gradle-3.3-all/55gk2rcmfc6p2dg9u9ohc3hw9/gradle-3.3/lib/plugins/hamcrest-core-1.3.jar
7f638c7bf000-7f638c7c8000 r--s 00089000 08:06 1738211                    /home/linuxp/.gradle/wrapper/dists/gradle-3.3-all/55gk2rcmfc6p2dg9u9ohc3hw9/gradle-3.3/lib/plugins/testng-6.3.1.jar
7f638c7c8000-7f638c7d0000 r--s 00045000 08:06 1738210                    /home/linuxp/.gradle/wrapper/dists/gradle-3.3-all/55gk2rcmfc6p2dg9u9ohc3hw9/gradle-3.3/lib/plugins/junit-4.12.jar
7f638c7d0000-7f638c7d6000 r--s 0002e000 08:06 1738180                    /home/linuxp/.gradle/wrapper/dists/gradle-3.3-all/55gk2rcmfc6p2dg9u9ohc3hw9/gradle-3.3/lib/plugins/gradle-testing-jvm-3.3.jar
7f638c7d6000-7f638c7da000 r--s 00016000 08:06 1738178                    /home/linuxp/.gradle/wrapper/dists/gradle-3.3-all/55gk2rcmfc6p2dg9u9ohc3hw9/gradle-3.3/lib/plugins/gradle-testing-base-3.3.jar
7f638c7da000-7f638c7e1000 r--s 00038000 08:06 1738205                    /home/linuxp/.gradle/wrapper/dists/gradle-3.3-all/55gk2rcmfc6p2dg9u9ohc3hw9/gradle-3.3/lib/plugins/bcpg-jdk15on-1.51.jar
7f638c7e1000-7f638c7e3000 r--s 0000c000 08:06 1738157                    /home/linuxp/.gradle/wrapper/dists/gradle-3.3-all/55gk2rcmfc6p2dg9u9ohc3hw9/gradle-3.3/lib/plugins/gradle-signing-3.3.jar
7f638c7e3000-7f638c7e5000 r--s 00007000 08:06 1738156                    /home/linuxp/.gradle/wrapper/dists/gradle-3.3-all/55gk2rcmfc6p2dg9u9ohc3hw9/gradle-3.3/lib/plugins/gradle-scala-3.3.jar
7f638c7e5000-7f638c7e6000 r--s 00004000 08:06 1738184                    /home/linuxp/.gradle/wrapper/dists/gradle-3.3-all/55gk2rcmfc6p2dg9u9ohc3hw9/gradle-3.3/lib/plugins/gradle-resources-sftp-3.3.jar
7f638c7e6000-7f638c7f6000 r--s 00088000 08:06 1738221                    /home/linuxp/.gradle/wrapper/dists/gradle-3.3-all/55gk2rcmfc6p2dg9u9ohc3hw9/gradle-3.3/lib/plugins/joda-time-2.8.2.jar
7f638c7f6000-7f638c807000 r--s 0010d000 08:06 1738220                    /home/linuxp/.gradle/wrapper/dists/gradle-3.3-all/55gk2rcmfc6p2dg9u9ohc3hw9/gradle-3.3/lib/plugins/jackson-databind-2.6.6.jar
7f638c807000-7f638c80a000 r--s 00009000 08:06 1738219                    /home/linuxp/.gradle/wrapper/dists/gradle-3.3-all/55gk2rcmfc6p2dg9u9ohc3hw9/gradle-3.3/lib/plugins/jackson-annotations-2.6.6.jar
7f638c80a000-7f638c80e000 r--s 0003c000 08:06 1738218                    /home/linuxp/.gradle/wrapper/dists/gradle-3.3-all/55gk2rcmfc6p2dg9u9ohc3hw9/gradle-3.3/lib/plugins/jackson-core-2.6.6.jar
7f638c80e000-7f638c81c000 r--s 00087000 08:06 1738217                    /home/linuxp/.gradle/wrapper/dists/gradle-3.3-all/55gk2rcmfc6p2dg9u9ohc3hw9/gradle-3.3/lib/plugins/aws-java-sdk-core-1.11.6.jar
7f638c81c000-7f638c823000 r--s 00057000 08:06 1738216                    /home/linuxp/.gradle/wrapper/dists/gradle-3.3-all/55gk2rcmfc6p2dg9u9ohc3hw9/gradle-3.3/lib/plugins/aws-java-sdk-kms-1.11.6.jar
7f638c823000-7f638c830000 r--s 0008e000 08:06 1738215                    /home/linuxp/.gradle/wrapper/dists/gradle-3.3-all/55gk2rcmfc6p2dg9u9ohc3hw9/gradle-3.3/lib/plugins/aws-java-sdk-s3-1.11.6.jar
7f638c830000-7f638c832000 r--s 00004000 08:06 1738185                    /home/linuxp/.gradle/wrapper/dists/gradle-3.3-all/55gk2rcmfc6p2dg9u9ohc3hw9/gradle-3.3/lib/plugins/gradle-resources-s3-3.3.jar
7f638c832000-7f638c834000 r--s 00005000 08:06 1738209                    /home/linuxp/.gradle/wrapper/dists/gradle-3.3-all/55gk2rcmfc6p2dg9u9ohc3hw9/gradle-3.3/lib/plugins/jatl-0.2.2.jar
7f638c834000-7f638c836000 r--s 0000f000 08:06 1738162                    /home/linuxp/.gradle/wrapper/dists/gradle-3.3-all/55gk2rcmfc6p2dg9u9ohc3hw9/gradle-3.3/lib/plugins/gradle-reporting-3.3.jar
7f638c836000-7f638c838000 r--s 00002000 08:06 1738163                    /home/linuxp/.gradle/wrapper/dists/gradle-3.3-all/55gk2rcmfc6p2dg9u9ohc3hw9/gradle-3.3/lib/plugins/gradle-publish-3.3.jar
7f638c838000-7f638c83a000 r--s 00009000 08:06 1738192                    /home/linuxp/.gradle/wrapper/dists/gradle-3.3-all/55gk2rcmfc6p2dg9u9ohc3hw9/gradle-3.3/lib/plugins/commons-cli-1.2.jar
7f638c83a000-7f638c840000 r--s 00031000 08:06 1738148                    /home/linuxp/.gradle/wrapper/dists/gradle-3.3-all/55gk2rcmfc6p2dg9u9ohc3hw9/gradle-3.3/lib/plugins/gradle-plugins-3.3.jar
7f638c840000-7f638c842000 r--s 00009000 08:06 1738181                    /home/linuxp/.gradle/wrapper/dists/gradle-3.3-all/55gk2rcmfc6p2dg9u9ohc3hw9/gradle-3.3/lib/plugins/gradle-plugin-development-3.3.jar
7f638c842000-7f638c848000 r--s 0002b000 08:06 1738174                    /home/linuxp/.gradle/wrapper/dists/gradle-3.3-all/55gk2rcmfc6p2dg9u9ohc3hw9/gradle-3.3/lib/plugins/gradle-platform-play-3.3.jar
7f638c848000-7f638c856000 r--s 00055000 08:06 1738173                    /home/linuxp/.gradle/wrapper/dists/gradle-3.3-all/55gk2rcmfc6p2dg9u9ohc3hw9/gradle-3.3/lib/plugins/gradle-platform-native-3.3.jar
7f638c856000-7f638c85b000 r--s 0001f000 08:06 1738168                    /home/linuxp/.gradle/wrapper/dists/gradle-3.3-all/55gk2rcmfc6p2dg9u9ohc3hw9/gradle-3.3/lib/plugins/gradle-platform-jvm-3.3.jar
7f638c85b000-7f638c863000 r--s 00027000 08:06 1738167                    /home/linuxp/.gradle/wrapper/dists/gradle-3.3-all/55gk2rcmfc6p2dg9u9ohc3hw9/gradle-3.3/lib/plugins/gradle-platform-base-3.3.jar
7f638c863000-7f638c88b000 r--s 0021c000 08:06 1738200                    /home/linuxp/.gradle/wrapper/dists/gradle-3.3-all/55gk2rcmfc6p2dg9u9ohc3hw9/gradle-3.3/lib/plugins/biz.aQute.bndlib-3.2.0.jar
7f638c88b000-7f638c88d000 r--s 00003000 08:06 1738152                    /home/linuxp/.gradle/wrapper/dists/gradle-3.3-all/55gk2rcmfc6p2dg9u9ohc3hw9/gradle-3.3/lib/plugins/gradle-osgi-3.3.jar
7f638c88d000-7f638c890000 r--s 0000c000 08:06 1738203                    /home/linuxp/.gradle/wrapper/dists/gradle-3.3-all/55gk2rcmfc6p2dg9u9ohc3hw9/gradle-3.3/lib/plugins/pmaven-groovy-0.8-20100325.jar
7f638c890000-7f638c891000 r--s 00004000 08:06 1738202                    /home/linuxp/.gradle/wrapper/dists/gradle-3.3-all/55gk2rcmfc6p2dg9u9ohc3hw9/gradle-3.3/lib/plugins/pmaven-common-0.8-20100325.jar
7f638c891000-7f638c897000 r--s 00023000 08:06 1738153                    /home/linuxp/.gradle/wrapper/dists/gradle-3.3-all/55gk2rcmfc6p2dg9u9ohc3hw9/gradle-3.3/lib/plugins/gradle-maven-3.3.jar
7f638c897000-7f638c89a000 r--s 0000b000 08:06 1738172                    /home/linuxp/.gradle/wrapper/dists/gradle-3.3-all/55gk2rcmfc6p2dg9u9ohc3hw9/gradle-3.3/lib/plugins/gradle-language-scala-3.3.jar
7f638c89a000-7f638c8a0000 r--s 0001a000 08:06 1738176                    /home/linuxp/.gradle/wrapper/dists/gradle-3.3-all/55gk2rcmfc6p2dg9u9ohc3hw9/gradle-3.3/lib/plugins/gradle-language-native-3.3.jar
7f638c8a0000-7f638c8a3000 r--s 00005000 08:06 1738169                    /home/linuxp/.gradle/wrapper/dists/gradle-3.3-all/55gk2rcmfc6p2dg9u9ohc3hw9/gradle-3.3/lib/plugins/gradle-language-jvm-3.3.jar
7f638c8a3000-7f638c8a9000 r--s 00027000 08:06 1738170                    /home/linuxp/.gradle/wrapper/dists/gradle-3.3-all/55gk2rcmfc6p2dg9u9ohc3hw9/gradle-3.3/lib/plugins/gradle-language-java-3.3.jar
7f638c8a9000-7f638c8ab000 r--s 0000a000 08:06 1738171                    /home/linuxp/.gradle/wrapper/dists/gradle-3.3-all/55gk2rcmfc6p2dg9u9ohc3hw9/gradle-3.3/lib/plugins/gradle-language-groovy-3.3.jar
7f638c8ab000-7f638c8ae000 r--s 0001e000 08:06 1738227                    /home/linuxp/.gradle/wrapper/dists/gradle-3.3-all/55gk2rcmfc6p2dg9u9ohc3hw9/gradle-3.3/lib/plugins/jsp-api-2.1-6.1.14.jar
7f638c8ae000-7f638c8d1000 r--s 00344000 08:06 1738226                    /home/linuxp/.gradle/wrapper/dists/gradle-3.3-all/55gk2rcmfc6p2dg9u9ohc3hw9/gradle-3.3/lib/plugins/core-3.1.1.jar
7f638c8d1000-7f638c8d2000 r--s 00006000 08:06 1738225                    /home/linuxp/.gradle/wrapper/dists/gradle-3.3-all/55gk2rcmfc6p2dg9u9ohc3hw9/gradle-3.3/lib/plugins/jetty-naming-6.1.26.jar
7f638c8d2000-7f638c8d3000 r--s 00002000 08:06 1738199                    /home/linuxp/.gradle/wrapper/dists/gradle-3.3-all/55gk2rcmfc6p2dg9u9ohc3hw9/gradle-3.3/lib/plugins/geronimo-annotation_1.0_spec-1.0.jar
7f638c8d3000-7f638c8d5000 r--s 00002000 08:06 1738198                    /home/linuxp/.gradle/wrapper/dists/gradle-3.3-all/55gk2rcmfc6p2dg9u9ohc3hw9/gradle-3.3/lib/plugins/jetty-annotations-6.1.26.jar
7f638c8d5000-7f638c8e6000 r--s 000ea000 08:06 1738197                    /home/linuxp/.gradle/wrapper/dists/gradle-3.3-all/55gk2rcmfc6p2dg9u9ohc3hw9/gradle-3.3/lib/plugins/jsp-2.1-6.1.14.jar
7f638c8e6000-7f638c8e8000 r--s 0000d000 08:06 1738196                    /home/linuxp/.gradle/wrapper/dists/gradle-3.3-all/55gk2rcmfc6p2dg9u9ohc3hw9/gradle-3.3/lib/plugins/jetty-plus-6.1.26.jar
7f638c8e8000-7f638c8ea000 r--s 0001f000 08:06 1738195                    /home/linuxp/.gradle/wrapper/dists/gradle-3.3-all/55gk2rcmfc6p2dg9u9ohc3hw9/gradle-3.3/lib/plugins/servlet-api-2.5-20081211.jar
7f638c8ea000-7f638c8ee000 r--s 00028000 08:06 1738194                    /home/linuxp/.gradle/wrapper/dists/gradle-3.3-all/55gk2rcmfc6p2dg9u9ohc3hw9/gradle-3.3/lib/plugins/jetty-util-6.1.26.jar
7f638c8ee000-7f638c8f5000 r--s 0007d000 08:06 1738193                    /home/linuxp/.gradle/wrapper/dists/gradle-3.3-all/55gk2rcmfc6p2dg9u9ohc3hw9/gradle-3.3/lib/plugins/jetty-6.1.26.jar
7f638c8f5000-7f638c8f7000 r--s 0000a000 08:06 1738150                    /home/linuxp/.gradle/wrapper/dists/gradle-3.3-all/55gk2rcmfc6p2dg9u9ohc3hw9/gradle-3.3/lib/plugins/gradle-jetty-3.3.jar
7f638c8f7000-7f638c8fe000 r--s 00035000 08:06 1738208                    /home/linuxp/.gradle/wrapper/dists/gradle-3.3-all/55gk2rcmfc6p2dg9u9ohc3hw9/gradle-3.3/lib/plugins/simple-4.1.21.jar
7f638c8fe000-7f638c90a000 r--s 00100000 08:06 1738206                    /home/linuxp/.gradle/wrapper/dists/gradle-3.3-all/55gk2rcmfc6p2dg9u9ohc3hw9/gradle-3.3/lib/plugins/rhino-1.7R3.jar
7f638c90a000-7f638c90e000 r--s 00012000 08:06 1738159                    /home/linuxp/.gradle/wrapper/dists/gradle-3.3-all/55gk2rcmfc6p2dg9u9ohc3hw9/gradle-3.3/lib/plugins/gradle-javascript-3.3.jar
7f638c90e000-7f638c910000 r--s 0000d000 08:06 1738165                    /home/linuxp/.gradle/wrapper/dists/gradle-3.3-all/55gk2rcmfc6p2dg9u9ohc3hw9/gradle-3.3/lib/plugins/gradle-jacoco-3.3.jar
7f638c910000-7f638c913000 r--s 0000e000 08:06 1738164                    /home/linuxp/.gradle/wrapper/dists/gradle-3.3-all/55gk2rcmfc6p2dg9u9ohc3hw9/gradle-3.3/lib/plugins/gradle-ivy-3.3.jar
7f638c913000-7f638c914000 r--s 00002000 08:06 1738175                    /home/linuxp/.gradle/wrapper/dists/gradle-3.3-all/55gk2rcmfc6p2dg9u9ohc3hw9/gradle-3.3/lib/plugins/gradle-ide-play-3.3.jar
7f638c914000-7f638c917000 r--s 00013000 08:06 1738177                    /home/linuxp/.gradle/wrapper/dists/gradle-3.3-all/55gk2rcmfc6p2dg9u9ohc3hw9/gradle-3.3/lib/plugins/gradle-ide-native-3.3.jar
7f638c917000-7f638c920000 r--s 00055000 08:06 1738154                    /home/linuxp/.gradle/wrapper/dists/gradle-3.3-all/55gk2rcmfc6p2dg9u9ohc3hw9/gradle-3.3/lib/plugins/gradle-ide-3.3.jar
7f638c920000-7f638c922000 r--s 00007000 08:06 1738158                    /home/linuxp/.gradle/wrapper/dists/gradle-3.3-all/55gk2rcmfc6p2dg9u9ohc3hw9/gradle-3.3/lib/plugins/gradle-ear-3.3.jar
7f638c922000-7f638c928000 r--s 00039000 08:06 1738161                    /home/linuxp/.gradle/wrapper/dists/gradle-3.3-all/55gk2rcmfc6p2dg9u9ohc3hw9/gradle-3.3/lib/plugins/gradle-diagnostics-3.3.jar
7f638c928000-7f638c929000 r--s 00009000 08:06 1738187                    /home/linuxp/.gradle/wrapper/dists/gradle-3.3-all/55gk2rcmfc6p2dg9u9ohc3hw9/gradle-3.3/lib/plugins/gradle-composite-builds-3.3.jar
7f638c929000-7f638c92d000 r--s 00023000 08:06 1738149                    /home/linuxp/.gradle/wrapper/dists/gradle-3.3-all/55gk2rcmfc6p2dg9u9ohc3hw9/gradle-3.3/lib/plugins/gradle-code-quality-3.3.jar
7f638c92d000-7f638c931000 r--s 00022000 08:06 1738166                    /home/linuxp/.gradle/wrapper/dists/gradle-3.3-all/55gk2rcmfc6p2dg9u9ohc3hw9/gradle-3.3/lib/plugins/gradle-build-init-3.3.jar
7f638c931000-7f638c937000 r--s 0008e000 08:06 1738160                    /home/linuxp/.gradle/wrapper/dists/gradle-3.3-all/55gk2rcmfc6p2dg9u9ohc3hw9/gradle-3.3/lib/plugins/gradle-build-comparison-3.3.jar
7f638c937000-7f638c938000 r--s 00001000 08:06 1738188                    /home/linuxp/.gradle/wrapper/dists/gradle-3.3-all/55gk2rcmfc6p2dg9u9ohc3hw9/gradle-3.3/lib/plugins/gradle-build-cache-http-3.3.jar
7f638c938000-7f638c93a000 r--s 00008000 08:06 1738151                    /home/linuxp/.gradle/wrapper/dists/gradle-3.3-all/55gk2rcmfc6p2dg9u9ohc3hw9/gradle-3.3/lib/plugins/gradle-antlr-3.3.jar
7f638c93a000-7f638c93c000 r--s 00004000 08:06 1738155                    /home/linuxp/.gradle/wrapper/dists/gradle-3.3-all/55gk2rcmfc6p2dg9u9ohc3hw9/gradle-3.3/lib/plugins/gradle-announce-3.3.jar
7f638c93c000-7f638c954000 r--s 00115000 08:06 1738257                    /home/linuxp/.gradle/wrapper/dists/gradle-3.3-all/55gk2rcmfc6p2dg9u9ohc3hw9/gradle-3.3/lib/plugins/xercesImpl-2.9.1.jar
7f638c954000-7f638c95c000 r--s 00028000 08:06 1738258                    /home/linuxp/.gradle/wrapper/dists/gradle-3.3-all/55gk2rcmfc6p2dg9u9ohc3hw9/gradle-3.3/lib/plugins/xml-apis-1.3.04.jar
7f638c95c000-7f638c962000 r--s 0005b000 08:06 1738256                    /home/linuxp/.gradle/wrapper/dists/gradle-3.3-all/55gk2rcmfc6p2dg9u9ohc3hw9/gradle-3.3/lib/plugins/jcifs-1.3.17.jar
7f638c962000-7f638c968000 r--s 00033000 08:06 1738204                    /home/linuxp/.gradle/wrapper/dists/gradle-3.3-all/55gk2rcmfc6p2dg9u9ohc3hw9/gradle-3.3/lib/plugins/commons-codec-1.6.jar
7f638c968000-7f638c96f000 r--s 00049000 08:06 1738255                    /home/linuxp/.gradle/wrapper/dists/gradle-3.3-all/55gk2rcmfc6p2dg9u9ohc3hw9/gradle-3.3/lib/plugins/httpcore-4.4.4.jar
7f638c96f000-7f638c972000 r--s 0001c000 08:06 1738213                    /home/linuxp/.gradle/wrapper/dists/gradle-3.3-all/55gk2rcmfc6p2dg9u9ohc3hw9/gradle-3.3/lib/plugins/nekohtml-1.9.14.jar
7f638c972000-7f638c97f000 r--s 000a4000 08:06 1738212                    /home/linuxp/.gradle/wrapper/dists/gradle-3.3-all/55gk2rcmfc6p2dg9u9ohc3hw9/gradle-3.3/lib/plugins/httpclient-4.4.1.jar
7f638c97f000-7f638c982000 r--s 0000a000 08:06 1738183                    /home/linuxp/.gradle/wrapper/dists/gradle-3.3-all/55gk2rcmfc6p2dg9u9ohc3hw9/gradle-3.3/lib/plugins/gradle-resources-http-3.3.jar
7f638c982000-7f638c986000 r--s 00015000 08:06 1738182                    /home/linuxp/.gradle/wrapper/dists/gradle-3.3-all/55gk2rcmfc6p2dg9u9ohc3hw9/gradle-3.3/lib/plugins/gradle-plugin-use-3.3.jar
7f638c986000-7f638c987000 r--s 00000000 08:06 1738095                    /home/linuxp/.gradle/wrapper/dists/gradle-3.3-all/55gk2rcmfc6p2dg9u9ohc3hw9/gradle-3.3/lib/gradle-installation-beacon-3.3.jar
7f638c987000-7f638c989000 r--s 00006000 08:06 1738251                    /home/linuxp/.gradle/wrapper/dists/gradle-3.3-all/55gk2rcmfc6p2dg9u9ohc3hw9/gradle-3.3/lib/plugins/aether-connector-wagon-1.13.1.jar
7f638c989000-7f638c98d000 r--s 0001c000 08:06 1738250                    /home/linuxp/.gradle/wrapper/dists/gradle-3.3-all/55gk2rcmfc6p2dg9u9ohc3hw9/gradle-3.3/lib/plugins/aether-util-1.13.1.jar
7f638c98d000-7f638c98e000 r--s 00003000 08:06 1738249                    /home/linuxp/.gradle/wrapper/dists/gradle-3.3-all/55gk2rcmfc6p2dg9u9ohc3hw9/gradle-3.3/lib/plugins/aether-spi-1.13.1.jar
7f638c98e000-7f638c991000 r--s 0001d000 08:06 1738248                    /home/linuxp/.gradle/wrapper/dists/gradle-3.3-all/55gk2rcmfc6p2dg9u9ohc3hw9/gradle-3.3/lib/plugins/aether-impl-1.13.1.jar
7f638c991000-7f638c994000 r--s 00013000 08:06 1738247                    /home/linuxp/.gradle/wrapper/dists/gradle-3.3-all/55gk2rcmfc6p2dg9u9ohc3hw9/gradle-3.3/lib/plugins/aether-api-1.13.1.jar
7f638c994000-7f638c995000 r--s 00007000 08:06 1738246                    /home/linuxp/.gradle/wrapper/dists/gradle-3.3-all/55gk2rcmfc6p2dg9u9ohc3hw9/gradle-3.3/lib/plugins/wagon-http-shared4-2.4.jar
7f638c995000-7f638c997000 r--s 0000b000 08:06 1738245                    /home/linuxp/.gradle/wrapper/dists/gradle-3.3-all/55gk2rcmfc6p2dg9u9ohc3hw9/gradle-3.3/lib/plugins/wagon-provider-api-2.4.jar
7f638c997000-7f638c998000 r--s 00002000 08:06 1738244                    /home/linuxp/.gradle/wrapper/dists/gradle-3.3-all/55gk2rcmfc6p2dg9u9ohc3hw9/gradle-3.3/lib/plugins/wagon-http-2.4.jar
7f638c998000-7f638c999000 r--s 00002000 08:06 1738243                    /home/linuxp/.gradle/wrapper/dists/gradle-3.3-all/55gk2rcmfc6p2dg9u9ohc3hw9/gradle-3.3/lib/plugins/wagon-file-2.4.jar
7f638c999000-7f638c99b000 r--s 0000c000 08:06 1738242                    /home/linuxp/.gradle/wrapper/dists/gradle-3.3-all/55gk2rcmfc6p2dg9u9ohc3hw9/gradle-3.3/lib/plugins/maven-aether-provider-3.0.4.jar
7f638c99b000-7f638c99d000 r--s 0000b000 08:06 1738241                    /home/linuxp/.gradle/wrapper/dists/gradle-3.3-all/55gk2rcmfc6p2dg9u9ohc3hw9/gradle-3.3/lib/plugins/maven-plugin-api-3.0.4.jar
7f638c99d000-7f638c99f000 r--s 00006000 08:06 1738240                    /home/linuxp/.gradle/wrapper/dists/gradle-3.3-all/55gk2rcmfc6p2dg9u9ohc3hw9/gradle-3.3/lib/plugins/maven-repository-metadata-3.0.4.jar
7f638c99f000-7f638c9a1000 r--s 0000b000 08:06 1738239                    /home/linuxp/.gradle/wrapper/dists/gradle-3.3-all/55gk2rcmfc6p2dg9u9ohc3hw9/gradle-3.3/lib/plugins/maven-artifact-3.0.4.jar
7f638c9a1000-7f638c9a3000 r--s 00026000 08:06 1738238                    /home/linuxp/.gradle/wrapper/dists/gradle-3.3-all/55gk2rcmfc6p2dg9u9ohc3hw9/gradle-3.3/lib/plugins/maven-model-3.0.4.jar
7f638c9a3000-7f638c9a7000 r--s 00021000 08:06 1738237                    /home/linuxp/.gradle/wrapper/dists/gradle-3.3-all/55gk2rcmfc6p2dg9u9ohc3hw9/gradle-3.3/lib/plugins/maven-model-builder-3.0.4.jar
7f638c9a7000-7f638c9ad000 r--s 0003f000 08:06 1738236                    /home/linuxp/.gradle/wrapper/dists/gradle-3.3-all/55gk2rcmfc6p2dg9u9ohc3hw9/gradle-3.3/lib/plugins/maven-compat-3.0.4.jar
7f638c9ad000-7f638c9ae000 r--s 00006000 08:06 1738235                    /home/linuxp/.gradle/wrapper/dists/gradle-3.3-all/55gk2rcmfc6p2dg9u9ohc3hw9/gradle-3.3/lib/plugins/plexus-sec-dispatcher-1.3.jar
7f638c9ae000-7f638c9b0000 r--s 00002000 08:06 1738234                    /home/linuxp/.gradle/wrapper/dists/gradle-3.3-all/55gk2rcmfc6p2dg9u9ohc3hw9/gradle-3.3/lib/plugins/plexus-cipher-1.7.jar
7f638c9b0000-7f638c9b2000 r--s 0000a000 08:06 1738233                    /home/linuxp/.gradle/wrapper/dists/gradle-3.3-all/55gk2rcmfc6p2dg9u9ohc3hw9/gradle-3.3/lib/plugins/plexus-classworlds-2.4.jar
7f638c9b2000-7f638c9b9000 r--s 0002e000 08:06 1738232                    /home/linuxp/.gradle/wrapper/dists/gradle-3.3-all/55gk2rcmfc6p2dg9u9ohc3hw9/gradle-3.3/lib/plugins/plexus-container-default-1.5.5.jar
7f638c9b9000-7f638c9bb000 r--s 00000000 08:06 1738259                    /home/linuxp/.gradle/wrapper/dists/gradle-3.3-all/55gk2rcmfc6p2dg9u9ohc3hw9/gradle-3.3/lib/plugins/plexus-component-annotations-1.5.5.jar
7f638c9bb000-7f638c9bd000 r--s 0000d000 08:06 1738231                    /home/linuxp/.gradle/wrapper/dists/gradle-3.3-all/55gk2rcmfc6p2dg9u9ohc3hw9/gradle-3.3/lib/plugins/plexus-interpolation-1.14.jar
7f638c9bd000-7f638c9c1000 r--s 00033000 08:06 1738230                    /home/linuxp/.gradle/wrapper/dists/gradle-3.3-all/55gk2rcmfc6p2dg9u9ohc3hw9/gradle-3.3/lib/plugins/plexus-utils-2.0.6.jar
7f638c9c1000-7f638c9c4000 r--s 00008000 08:06 1738229                    /home/linuxp/.gradle/wrapper/dists/gradle-3.3-all/55gk2rcmfc6p2dg9u9ohc3hw9/gradle-3.3/lib/plugins/maven-settings-builder-3.0.4.jar
7f638c9c4000-7f638c9c6000 r--s 0000a000 08:06 1738228                    /home/linuxp/.gradle/wrapper/dists/gradle-3.3-all/55gk2rcmfc6p2dg9u9ohc3hw9/gradle-3.3/lib/plugins/maven-settings-3.0.4.jar
7f638c9c6000-7f638c9cb000 r--s 00040000 08:06 1738214                    /home/linuxp/.gradle/wrapper/dists/gradle-3.3-all/55gk2rcmfc6p2dg9u9ohc3hw9/gradle-3.3/lib/plugins/jsch-0.1.53.jar
7f638c9cb000-7f638ca0b000 r--s 00277000 08:06 1738224                    /home/linuxp/.gradle/wrapper/dists/gradle-3.3-all/55gk2rcmfc6p2dg9u9ohc3hw9/gradle-3.3/lib/plugins/bcprov-jdk15on-1.51.jar
7f638ca0b000-7f638ca0f000 r--s 0001d000 08:06 1738223                    /home/linuxp/.gradle/wrapper/dists/gradle-3.3-all/55gk2rcmfc6p2dg9u9ohc3hw9/gradle-3.3/lib/plugins/xbean-reflect-3.4.jar
7f638ca0f000-7f638ca1b000 r--s 0007d000 08:06 1738201                    /home/linuxp/.gradle/wrapper/dists/gradle-3.3-all/55gk2rcmfc6p2dg9u9ohc3hw9/gradle-3.3/lib/plugins/maven-core-3.0.4.jar
7f638ca1b000-7f638ca20000 r--s 00034000 08:06 1738207                    /home/linuxp/.gradle/wrapper/dists/gradle-3.3-all/55gk2rcmfc6p2dg9u9ohc3hw9/gradle-3.3/lib/plugins/gson-2.7.jar
7f638ca20000-7f638ca2f000 r--s 000d9000 08:06 1738222                    /home/linuxp/.gradle/wrapper/dists/gradle-3.3-all/55gk2rcmfc6p2dg9u9ohc3hw9/gradle-3.3/lib/plugins/ivy-2.2.0.jar
7f638ca2f000-7f638ca45000 r-xp 00000000 08:06 625537                     /lib/x86_64-linux-gnu/libgcc_s.so.1
7f638ca45000-7f638cc44000 ---p 00016000 08:06 625537                     /lib/x86_64-linux-gnu/libgcc_s.so.1
7f638cc44000-7f638cc45000 r--p 00015000 08:06 625537                     /lib/x86_64-linux-gnu/libgcc_s.so.1
7f638cc45000-7f638cc46000 rw-p 00016000 08:06 625537                     /lib/x86_64-linux-gnu/libgcc_s.so.1
7f638cc46000-7f638cd4d000 r-xp 00000000 08:06 786353                     /usr/lib/x86_64-linux-gnu/libstdc++.so.6.0.24
7f638cd4d000-7f638cf4c000 ---p 00107000 08:06 786353                     /usr/lib/x86_64-linux-gnu/libstdc++.so.6.0.24
7f638cf4c000-7f638cf54000 r--p 00106000 08:06 786353                     /usr/lib/x86_64-linux-gnu/libstdc++.so.6.0.24
7f638cf54000-7f638cf56000 rw-p 0010e000 08:06 786353                     /usr/lib/x86_64-linux-gnu/libstdc++.so.6.0.24
7f638cf56000-7f638cf59000 rw-p 00000000 00:00 0 
7f638cf59000-7f638cf78000 r--s 000f6000 08:06 1738190                    /home/linuxp/.gradle/wrapper/dists/gradle-3.3-all/55gk2rcmfc6p2dg9u9ohc3hw9/gradle-3.3/lib/plugins/gradle-dependency-management-3.3.jar
7f638cf78000-7f638cf7a000 r--s 00005000 08:06 1738189                    /home/linuxp/.gradle/wrapper/dists/gradle-3.3-all/55gk2rcmfc6p2dg9u9ohc3hw9/gradle-3.3/lib/plugins/gradle-workers-3.3.jar
7f638cf7a000-7f638cf7f000 r-xp 00000000 08:06 2619145                    /home/linuxp/.gradle/native/23/linux-amd64/libnative-platform.so
7f638cf7f000-7f638d17e000 ---p 00005000 08:06 2619145                    /home/linuxp/.gradle/native/23/linux-amd64/libnative-platform.so
7f638d17e000-7f638d17f000 rw-p 00004000 08:06 2619145                    /home/linuxp/.gradle/native/23/linux-amd64/libnative-platform.so
7f638d17f000-7f638d190000 r-xp 00000000 08:06 805622                     /usr/lib/jvm/java-8-oracle/jre/lib/amd64/libnio.so
7f638d190000-7f638d38f000 ---p 00011000 08:06 805622                     /usr/lib/jvm/java-8-oracle/jre/lib/amd64/libnio.so
7f638d38f000-7f638d390000 rw-p 00010000 08:06 805622                     /usr/lib/jvm/java-8-oracle/jre/lib/amd64/libnio.so
7f638d390000-7f638d3a6000 r-xp 00000000 08:06 805064                     /usr/lib/jvm/java-8-oracle/jre/lib/amd64/libnet.so
7f638d3a6000-7f638d5a6000 ---p 00016000 08:06 805064                     /usr/lib/jvm/java-8-oracle/jre/lib/amd64/libnet.so
7f638d5a6000-7f638d5a7000 rw-p 00016000 08:06 805064                     /usr/lib/jvm/java-8-oracle/jre/lib/amd64/libnet.so
7f638d5a7000-7f638d5b1000 r--s 00116000 08:06 799726                     /usr/lib/jvm/java-8-oracle/jre/lib/ext/localedata.jar
7f638d5b1000-7f638d5cd000 r--s 00393000 08:06 799694                     /usr/lib/jvm/java-8-oracle/jre/lib/ext/cldrdata.jar
7f638d5cd000-7f638d5ce000 r--s 00006000 08:06 1738094                    /home/linuxp/.gradle/wrapper/dists/gradle-3.3-all/55gk2rcmfc6p2dg9u9ohc3hw9/gradle-3.3/lib/gradle-wrapper-3.3.jar
7f638d5ce000-7f638d5db000 r--s 00041000 08:06 1738101                    /home/linuxp/.gradle/wrapper/dists/gradle-3.3-all/55gk2rcmfc6p2dg9u9ohc3hw9/gradle-3.3/lib/gradle-tooling-api-3.3.jar
7f638d5db000-7f638d5dd000 r--s 00002000 08:06 1738121                    /home/linuxp/.gradle/wrapper/dists/gradle-3.3-all/55gk2rcmfc6p2dg9u9ohc3hw9/gradle-3.3/lib/gradle-open-api-3.3.jar
7f638d5dd000-7f638d5e3000 r--s 00032000 08:06 1738123                    /home/linuxp/.gradle/wrapper/dists/gradle-3.3-all/55gk2rcmfc6p2dg9u9ohc3hw9/gradle-3.3/lib/jaxen-1.1.jar
7f638d5e3000-7f638d5e8000 r--s 00048000 08:06 1738122                    /home/linuxp/.gradle/wrapper/dists/gradle-3.3-all/55gk2rcmfc6p2dg9u9ohc3hw9/gradle-3.3/lib/dom4j-1.6.1.jar
7f638d5e8000-7f638d5f3000 r--s 00059000 08:06 1738100                    /home/linuxp/.gradle/wrapper/dists/gradle-3.3-all/55gk2rcmfc6p2dg9u9ohc3hw9/gradle-3.3/lib/gradle-ui-3.3.jar
7f638d5f3000-7f638d5fc000 r--s 0008c000 08:06 1738092                    /home/linuxp/.gradle/wrapper/dists/gradle-3.3-all/55gk2rcmfc6p2dg9u9ohc3hw9/gradle-3.3/lib/kotlin-stdlib-1.1-M02.jar
7f638d5fc000-7f638d602000 r--s 0002a000 08:06 1738091                    /home/linuxp/.gradle/wrapper/dists/gradle-3.3-all/55gk2rcmfc6p2dg9u9ohc3hw9/gradle-3.3/lib/kotlin-runtime-1.1-M02.jar
7f638d602000-7f638d636000 r--s 00256000 08:06 1738090                    /home/linuxp/.gradle/wrapper/dists/gradle-3.3-all/55gk2rcmfc6p2dg9u9ohc3hw9/gradle-3.3/lib/kotlin-reflect-1.1-M02.jar
7f638d636000-7f638d7cc000 r--s 0157e000 08:06 1738089                    /home/linuxp/.gradle/wrapper/dists/gradle-3.3-all/55gk2rcmfc6p2dg9u9ohc3hw9/gradle-3.3/lib/kotlin-compiler-embeddable-1.1-M02.jar
7f638d7cc000-7f638d7d4000 r--s 0004e000 08:06 1738088                    /home/linuxp/.gradle/wrapper/dists/gradle-3.3-all/55gk2rcmfc6p2dg9u9ohc3hw9/gradle-3.3/lib/gradle-script-kotlin-0.5.1.jar
7f638d7d4000-7f638d7d7000 r--s 0000b000 08:06 1738119                    /home/linuxp/.gradle/wrapper/dists/gradle-3.3-all/55gk2rcmfc6p2dg9u9ohc3hw9/gradle-3.3/lib/gradle-resources-3.3.jar
7f638d7d7000-7f638d7d9000 r--s 00003000 08:06 1738128                    /home/linuxp/.gradle/wrapper/dists/gradle-3.3-all/55gk2rcmfc6p2dg9u9ohc3hw9/gradle-3.3/lib/jcl-over-slf4j-1.7.10.jar
7f638d7d9000-7f638d7da000 r--s 00005000 08:06 1738127                    /home/linuxp/.gradle/wrapper/dists/gradle-3.3-all/55gk2rcmfc6p2dg9u9ohc3hw9/gradle-3.3/lib/log4j-over-slf4j-1.7.10.jar
7f638d7da000-7f638d7dc000 r--s 00000000 08:06 1738126                    /home/linuxp/.gradle/wrapper/dists/gradle-3.3-all/55gk2rcmfc6p2dg9u9ohc3hw9/gradle-3.3/lib/jul-to-slf4j-1.7.10.jar
7f638d7dc000-7f638d7e1000 r--s 0001e000 08:06 1738103                    /home/linuxp/.gradle/wrapper/dists/gradle-3.3-all/55gk2rcmfc6p2dg9u9ohc3hw9/gradle-3.3/lib/gradle-logging-3.3.jar
7f638d7e1000-7f638d7e3000 r--s 00007000 08:06 1738147                    /home/linuxp/.gradle/wrapper/dists/gradle-3.3-all/55gk2rcmfc6p2dg9u9ohc3hw9/gradle-3.3/lib/objenesis-1.2.jar
7f638d7e3000-7f638d7e5000 r--s 00000000 08:06 1738146                    /home/linuxp/.gradle/wrapper/dists/gradle-3.3-all/55gk2rcmfc6p2dg9u9ohc3hw9/gradle-3.3/lib/minlog-1.2.jar
7f638d7e5000-7f638d7e7000 r--s 0000f000 08:06 1738145                    /home/linuxp/.gradle/wrapper/dists/gradle-3.3-all/55gk2rcmfc6p2dg9u9ohc3hw9/gradle-3.3/lib/reflectasm-1.07-shaded.jar
7f638d7e7000-7f638d7eb000 r--s 00026000 08:06 1738130                    /home/linuxp/.gradle/wrapper/dists/gradle-3.3-all/55gk2rcmfc6p2dg9u9ohc3hw9/gradle-3.3/lib/kryo-2.20.jar
7f638d7eb000-7f638d7f1000 r--s 00027000 08:06 1738118                    /home/linuxp/.gradle/wrapper/dists/gradle-3.3-all/55gk2rcmfc6p2dg9u9ohc3hw9/gradle-3.3/lib/gradle-messaging-3.3.jar
7f638d7f1000-7f638d7f2000 r--s 00001000 08:06 1738144                    /home/linuxp/.gradle/wrapper/dists/gradle-3.3-all/55gk2rcmfc6p2dg9u9ohc3hw9/gradle-3.3/lib/native-platform-linux-i386-ncurses6-0.12.jar
7f638d7f2000-7f638d7f3000 r--s 00001000 08:06 1738143                    /home/linuxp/.gradle/wrapper/dists/gradle-3.3-all/55gk2rcmfc6p2dg9u9ohc3hw9/gradle-3.3/lib/native-platform-linux-i386-ncurses5-0.12.jar
7f638d7f3000-7f638d7f4000 r--s 00001000 08:06 1738142                    /home/linuxp/.gradle/wrapper/dists/gradle-3.3-all/55gk2rcmfc6p2dg9u9ohc3hw9/gradle-3.3/lib/native-platform-linux-amd64-ncurses6-0.12.jar
7f638d7f4000-7f638d7f5000 r--s 00001000 08:06 1738141                    /home/linuxp/.gradle/wrapper/dists/gradle-3.3-all/55gk2rcmfc6p2dg9u9ohc3hw9/gradle-3.3/lib/native-platform-linux-amd64-ncurses5-0.12.jar
7f638d7f5000-7f638d7f7000 r--s 0000b000 08:06 1738139                    /home/linuxp/.gradle/wrapper/dists/gradle-3.3-all/55gk2rcmfc6p2dg9u9ohc3hw9/gradle-3.3/lib/native-platform-windows-amd64-0.12.jar
7f638d7f7000-7f638d7f9000 r--s 00002000 08:06 1738138                    /home/linuxp/.gradle/wrapper/dists/gradle-3.3-all/55gk2rcmfc6p2dg9u9ohc3hw9/gradle-3.3/lib/native-platform-osx-i386-0.12.jar
7f638d7f9000-7f638d869000 r--s 00641000 08:06 1738108                    /home/linuxp/.gradle/wrapper/dists/gradle-3.3-all/55gk2rcmfc6p2dg9u9ohc3hw9/gradle-3.3/lib/groovy-all-2.4.7.jar
7f638d869000-7f638d891000 r--s 001cf000 08:06 1738105                    /home/linuxp/.gradle/wrapper/dists/gradle-3.3-all/55gk2rcmfc6p2dg9u9ohc3hw9/gradle-3.3/lib/guava-jdk5-17.0.jar
7f638d891000-7f638d8b0000 r--s 001d1000 08:06 1738112                    /home/linuxp/.gradle/wrapper/dists/gradle-3.3-all/55gk2rcmfc6p2dg9u9ohc3hw9/gradle-3.3/lib/ant-1.9.6.jar
7f638d8b0000-7f638d8ed000 r--s 001f8000 08:06 1738098                    /home/linuxp/.gradle/wrapper/dists/gradle-3.3-all/55gk2rcmfc6p2dg9u9ohc3hw9/gradle-3.3/lib/gradle-core-3.3.jar
7f638d8ed000-7f638d983000 r--s 0110a000 08:06 799729                     /usr/lib/jvm/java-8-oracle/jre/lib/ext/jfxrt.jar
7f638d983000-7f638d984000 ---p 00000000 00:00 0 
7f638d984000-7f638da84000 rw-p 00000000 00:00 0 
7f638da84000-7f638da87000 ---p 00000000 00:00 0 
7f638da87000-7f638db85000 rw-p 00000000 00:00 0 
7f638db85000-7f638db88000 ---p 00000000 00:00 0 
7f638db88000-7f638dc86000 rw-p 00000000 00:00 0 
7f638dc86000-7f638dc89000 ---p 00000000 00:00 0 
7f638dc89000-7f638dd87000 rw-p 00000000 00:00 0 
7f638dd87000-7f638dd8a000 ---p 00000000 00:00 0 
7f638dd8a000-7f638de88000 rw-p 00000000 00:00 0 
7f638de88000-7f638de8b000 ---p 00000000 00:00 0 
7f638de8b000-7f638df89000 rw-p 00000000 00:00 0 
7f638df89000-7f638e66b000 r--p 00000000 08:06 790424                     /usr/lib/locale/locale-archive
7f638e66b000-7f638e66e000 ---p 00000000 00:00 0 
7f638e66e000-7f638e76c000 rw-p 00000000 00:00 0 
7f638e76c000-7f638e76f000 ---p 00000000 00:00 0 
7f638e76f000-7f638e86d000 rw-p 00000000 00:00 0 
7f638e86d000-7f638e86e000 ---p 00000000 00:00 0 
7f638e86e000-7f6390000000 rw-p 00000000 00:00 0 
7f6390000000-7f6390044000 rw-p 00000000 00:00 0 
7f6390044000-7f6394000000 ---p 00000000 00:00 0 
7f6394000000-7f6394036000 rw-p 00000000 00:00 0 
7f6394036000-7f6398000000 ---p 00000000 00:00 0 
7f6398000000-7f6398025000 rw-p 00000000 00:00 0 
7f6398025000-7f639c000000 ---p 00000000 00:00 0 
7f639c000000-7f639c12e000 rw-p 00000000 00:00 0 
7f639c12e000-7f63a0000000 ---p 00000000 00:00 0 
7f63a0000000-7f63a0001000 r--s 0000b000 08:06 1738140                    /home/linuxp/.gradle/wrapper/dists/gradle-3.3-all/55gk2rcmfc6p2dg9u9ohc3hw9/gradle-3.3/lib/native-platform-windows-i386-0.12.jar
7f63a0001000-7f63a0002000 r--s 00002000 08:06 1738137                    /home/linuxp/.gradle/wrapper/dists/gradle-3.3-all/55gk2rcmfc6p2dg9u9ohc3hw9/gradle-3.3/lib/native-platform-osx-amd64-0.12.jar
7f63a0002000-7f63a0003000 r--s 00002000 08:06 1738136                    /home/linuxp/.gradle/wrapper/dists/gradle-3.3-all/55gk2rcmfc6p2dg9u9ohc3hw9/gradle-3.3/lib/native-platform-linux-i386-0.12.jar
7f63a0003000-7f63a0004000 r--s 00002000 08:06 1738135                    /home/linuxp/.gradle/wrapper/dists/gradle-3.3-all/55gk2rcmfc6p2dg9u9ohc3hw9/gradle-3.3/lib/native-platform-linux-amd64-0.12.jar
7f63a0004000-7f63a0005000 r--s 00003000 08:06 1738134                    /home/linuxp/.gradle/wrapper/dists/gradle-3.3-all/55gk2rcmfc6p2dg9u9ohc3hw9/gradle-3.3/lib/native-platform-freebsd-i386-libstdcpp-0.12.jar
7f63a0005000-7f63a0006000 r--s 00004000 08:06 1738133                    /home/linuxp/.gradle/wrapper/dists/gradle-3.3-all/55gk2rcmfc6p2dg9u9ohc3hw9/gradle-3.3/lib/native-platform-freebsd-i386-libcpp-0.12.jar
7f63a0006000-7f63a0008000 r--s 00003000 08:06 1738132                    /home/linuxp/.gradle/wrapper/dists/gradle-3.3-all/55gk2rcmfc6p2dg9u9ohc3hw9/gradle-3.3/lib/native-platform-freebsd-amd64-libstdcpp-0.12.jar
7f63a0008000-7f63a0009000 r--s 00004000 08:06 1738131                    /home/linuxp/.gradle/wrapper/dists/gradle-3.3-all/55gk2rcmfc6p2dg9u9ohc3hw9/gradle-3.3/lib/native-platform-freebsd-amd64-libcpp-0.12.jar
7f63a0009000-7f63a000c000 r--s 00023000 08:06 1738125                    /home/linuxp/.gradle/wrapper/dists/gradle-3.3-all/55gk2rcmfc6p2dg9u9ohc3hw9/gradle-3.3/lib/jansi-1.14.jar
7f63a000c000-7f63a0010000 r--s 00011000 08:06 1738124                    /home/linuxp/.gradle/wrapper/dists/gradle-3.3-all/55gk2rcmfc6p2dg9u9ohc3hw9/gradle-3.3/lib/native-platform-0.12.jar
7f63a0010000-7f63a0013000 r--s 0000a000 08:06 1738102                    /home/linuxp/.gradle/wrapper/dists/gradle-3.3-all/55gk2rcmfc6p2dg9u9ohc3hw9/gradle-3.3/lib/gradle-native-3.3.jar
7f63a0013000-7f63a0015000 r--s 00005000 08:06 1738099                    /home/linuxp/.gradle/wrapper/dists/gradle-3.3-all/55gk2rcmfc6p2dg9u9ohc3hw9/gradle-3.3/lib/gradle-cli-3.3.jar
7f63a0015000-7f63a0017000 r--s 00007000 08:06 1738110                    /home/linuxp/.gradle/wrapper/dists/gradle-3.3-all/55gk2rcmfc6p2dg9u9ohc3hw9/gradle-3.3/lib/gradle-model-groovy-3.3.jar
7f63a0017000-7f63a0019000 r--s 00006000 08:06 1738117                    /home/linuxp/.gradle/wrapper/dists/gradle-3.3-all/55gk2rcmfc6p2dg9u9ohc3hw9/gradle-3.3/lib/gradle-base-services-groovy-3.3.jar
7f63a0019000-7f63a0169000 rw-p 00000000 00:00 0 
7f63a0169000-7f63a0342000 r--s 03d64000 08:06 811785                     /usr/lib/jvm/java-8-oracle/jre/lib/rt.jar
7f63a0342000-7f63a36b8000 rw-p 00000000 00:00 0 
7f63a36b8000-7f63a36b9000 ---p 00000000 00:00 0 
7f63a36b9000-7f63a37b9000 rw-p 00000000 00:00 0 
7f63a37b9000-7f63a37ba000 ---p 00000000 00:00 0 
7f63a37ba000-7f63a38ba000 rw-p 00000000 00:00 0 
7f63a38ba000-7f63a38bb000 ---p 00000000 00:00 0 
7f63a38bb000-7f63a39bb000 rw-p 00000000 00:00 0 
7f63a39bb000-7f63a39bc000 ---p 00000000 00:00 0 
7f63a39bc000-7f63a3be5000 rw-p 00000000 00:00 0 
7f63a3be5000-7f63a3cbc000 ---p 00000000 00:00 0 
7f63a3cbc000-7f63a3de5000 rw-p 00000000 00:00 0 
7f63a3de5000-7f63a3ebc000 ---p 00000000 00:00 0 
7f63a3ebc000-7f63a3fbc000 rw-p 00000000 00:00 0 
7f63a3fbc000-7f63a4041000 rw-p 00000000 00:00 0 
7f63a4041000-7f63a437d000 ---p 00000000 00:00 0 
7f63a437d000-7f63a644d000 rwxp 00000000 00:00 0 
7f63a644d000-7f63b337d000 ---p 00000000 00:00 0 
7f63b337d000-7f63b3398000 r-xp 00000000 08:06 805606                     /usr/lib/jvm/java-8-oracle/jre/lib/amd64/libzip.so
7f63b3398000-7f63b3598000 ---p 0001b000 08:06 805606                     /usr/lib/jvm/java-8-oracle/jre/lib/amd64/libzip.so
7f63b3598000-7f63b3599000 rw-p 0001b000 08:06 805606                     /usr/lib/jvm/java-8-oracle/jre/lib/amd64/libzip.so
7f63b3599000-7f63b35a3000 r-xp 00000000 08:06 523515                     /lib/x86_64-linux-gnu/libnss_files-2.19.so
7f63b35a3000-7f63b37a2000 ---p 0000a000 08:06 523515                     /lib/x86_64-linux-gnu/libnss_files-2.19.so
7f63b37a2000-7f63b37a3000 r--p 00009000 08:06 523515                     /lib/x86_64-linux-gnu/libnss_files-2.19.so
7f63b37a3000-7f63b37a4000 rw-p 0000a000 08:06 523515                     /lib/x86_64-linux-gnu/libnss_files-2.19.so
7f63b37a4000-7f63b37af000 r-xp 00000000 08:06 602607                     /lib/x86_64-linux-gnu/libnss_nis-2.19.so
7f63b37af000-7f63b39ae000 ---p 0000b000 08:06 602607                     /lib/x86_64-linux-gnu/libnss_nis-2.19.so
7f63b39ae000-7f63b39af000 r--p 0000a000 08:06 602607                     /lib/x86_64-linux-gnu/libnss_nis-2.19.so
7f63b39af000-7f63b39b0000 rw-p 0000b000 08:06 602607                     /lib/x86_64-linux-gnu/libnss_nis-2.19.so
7f63b39b0000-7f63b39c7000 r-xp 00000000 08:06 619535                     /lib/x86_64-linux-gnu/libnsl-2.19.so
7f63b39c7000-7f63b3bc6000 ---p 00017000 08:06 619535                     /lib/x86_64-linux-gnu/libnsl-2.19.so
7f63b3bc6000-7f63b3bc7000 r--p 00016000 08:06 619535                     /lib/x86_64-linux-gnu/libnsl-2.19.so
7f63b3bc7000-7f63b3bc8000 rw-p 00017000 08:06 619535                     /lib/x86_64-linux-gnu/libnsl-2.19.so
7f63b3bc8000-7f63b3bca000 rw-p 00000000 00:00 0 
7f63b3bca000-7f63b3bd3000 r-xp 00000000 08:06 608567                     /lib/x86_64-linux-gnu/libnss_compat-2.19.so
7f63b3bd3000-7f63b3dd2000 ---p 00009000 08:06 608567                     /lib/x86_64-linux-gnu/libnss_compat-2.19.so
7f63b3dd2000-7f63b3dd3000 r--p 00008000 08:06 608567                     /lib/x86_64-linux-gnu/libnss_compat-2.19.so
7f63b3dd3000-7f63b3dd4000 rw-p 00009000 08:06 608567                     /lib/x86_64-linux-gnu/libnss_compat-2.19.so
7f63b3dd4000-7f63b3dff000 r-xp 00000000 08:06 805605                     /usr/lib/jvm/java-8-oracle/jre/lib/amd64/libjava.so
7f63b3dff000-7f63b3ffe000 ---p 0002b000 08:06 805605                     /usr/lib/jvm/java-8-oracle/jre/lib/amd64/libjava.so
7f63b3ffe000-7f63b4000000 rw-p 0002a000 08:06 805605                     /usr/lib/jvm/java-8-oracle/jre/lib/amd64/libjava.so
7f63b4000000-7f63b4d6b000 rw-p 00000000 00:00 0 
7f63b4d6b000-7f63b8000000 ---p 00000000 00:00 0 
7f63b8000000-7f63b800f000 r--s 0007f000 08:06 1738109                    /home/linuxp/.gradle/wrapper/dists/gradle-3.3-all/55gk2rcmfc6p2dg9u9ohc3hw9/gradle-3.3/lib/gradle-model-core-3.3.jar
7f63b800f000-7f63b801c000 r--s 00083000 08:06 1738113                    /home/linuxp/.gradle/wrapper/dists/gradle-3.3-all/55gk2rcmfc6p2dg9u9ohc3hw9/gradle-3.3/lib/commons-collections-3.2.2.jar
7f63b801c000-7f63b8029000 r-xp 00000000 08:06 805624                     /usr/lib/jvm/java-8-oracle/jre/lib/amd64/libverify.so
7f63b8029000-7f63b8229000 ---p 0000d000 08:06 805624                     /usr/lib/jvm/java-8-oracle/jre/lib/amd64/libverify.so
7f63b8229000-7f63b822b000 rw-p 0000d000 08:06 805624                     /usr/lib/jvm/java-8-oracle/jre/lib/amd64/libverify.so
7f63b822b000-7f63b8232000 r-xp 00000000 08:06 619530                     /lib/x86_64-linux-gnu/librt-2.19.so
7f63b8232000-7f63b8431000 ---p 00007000 08:06 619530                     /lib/x86_64-linux-gnu/librt-2.19.so
7f63b8431000-7f63b8432000 r--p 00006000 08:06 619530                     /lib/x86_64-linux-gnu/librt-2.19.so
7f63b8432000-7f63b8433000 rw-p 00007000 08:06 619530                     /lib/x86_64-linux-gnu/librt-2.19.so
7f63b8433000-7f63b8538000 r-xp 00000000 08:06 608624                     /lib/x86_64-linux-gnu/libm-2.19.so
7f63b8538000-7f63b8737000 ---p 00105000 08:06 608624                     /lib/x86_64-linux-gnu/libm-2.19.so
7f63b8737000-7f63b8738000 r--p 00104000 08:06 608624                     /lib/x86_64-linux-gnu/libm-2.19.so
7f63b8738000-7f63b8739000 rw-p 00105000 08:06 608624                     /lib/x86_64-linux-gnu/libm-2.19.so
7f63b8739000-7f63b9412000 r-xp 00000000 08:06 805145                     /usr/lib/jvm/java-8-oracle/jre/lib/amd64/server/libjvm.so
7f63b9412000-7f63b9611000 ---p 00cd9000 08:06 805145                     /usr/lib/jvm/java-8-oracle/jre/lib/amd64/server/libjvm.so
7f63b9611000-7f63b96ea000 rw-p 00cd8000 08:06 805145                     /usr/lib/jvm/java-8-oracle/jre/lib/amd64/server/libjvm.so
7f63b96ea000-7f63b9736000 rw-p 00000000 00:00 0 
7f63b9736000-7f63b98f4000 r-xp 00000000 08:06 631574                     /lib/x86_64-linux-gnu/libc-2.19.so
7f63b98f4000-7f63b9af4000 ---p 001be000 08:06 631574                     /lib/x86_64-linux-gnu/libc-2.19.so
7f63b9af4000-7f63b9af8000 r--p 001be000 08:06 631574                     /lib/x86_64-linux-gnu/libc-2.19.so
7f63b9af8000-7f63b9afa000 rw-p 001c2000 08:06 631574                     /lib/x86_64-linux-gnu/libc-2.19.so
7f63b9afa000-7f63b9aff000 rw-p 00000000 00:00 0 
7f63b9aff000-7f63b9b02000 r-xp 00000000 08:06 619550                     /lib/x86_64-linux-gnu/libdl-2.19.so
7f63b9b02000-7f63b9d01000 ---p 00003000 08:06 619550                     /lib/x86_64-linux-gnu/libdl-2.19.so
7f63b9d01000-7f63b9d02000 r--p 00002000 08:06 619550                     /lib/x86_64-linux-gnu/libdl-2.19.so
7f63b9d02000-7f63b9d03000 rw-p 00003000 08:06 619550                     /lib/x86_64-linux-gnu/libdl-2.19.so
7f63b9d03000-7f63b9d19000 r-xp 00000000 08:06 827952                     /usr/lib/jvm/java-8-oracle/lib/amd64/jli/libjli.so
7f63b9d19000-7f63b9f18000 ---p 00016000 08:06 827952                     /usr/lib/jvm/java-8-oracle/lib/amd64/jli/libjli.so
7f63b9f18000-7f63b9f19000 rw-p 00015000 08:06 827952                     /usr/lib/jvm/java-8-oracle/lib/amd64/jli/libjli.so
7f63b9f19000-7f63b9f32000 r-xp 00000000 08:06 614650                     /lib/x86_64-linux-gnu/libpthread-2.19.so
7f63b9f32000-7f63ba131000 ---p 00019000 08:06 614650                     /lib/x86_64-linux-gnu/libpthread-2.19.so
7f63ba131000-7f63ba132000 r--p 00018000 08:06 614650                     /lib/x86_64-linux-gnu/libpthread-2.19.so
7f63ba132000-7f63ba133000 rw-p 00019000 08:06 614650                     /lib/x86_64-linux-gnu/libpthread-2.19.so
7f63ba133000-7f63ba137000 rw-p 00000000 00:00 0 
7f63ba137000-7f63ba15a000 r-xp 00000000 08:06 608634                     /lib/x86_64-linux-gnu/ld-2.19.so
7f63ba15a000-7f63ba15b000 r--s 00002000 08:06 1738120                    /home/linuxp/.gradle/wrapper/dists/gradle-3.3-all/55gk2rcmfc6p2dg9u9ohc3hw9/gradle-3.3/lib/gradle-docs-3.3.jar
7f63ba15b000-7f63ba15c000 r--s 00000000 08:06 1738116                    /home/linuxp/.gradle/wrapper/dists/gradle-3.3-all/55gk2rcmfc6p2dg9u9ohc3hw9/gradle-3.3/lib/javax.inject-1.jar
7f63ba15c000-7f63ba15d000 r--s 00000000 08:06 1738115                    /home/linuxp/.gradle/wrapper/dists/gradle-3.3-all/55gk2rcmfc6p2dg9u9ohc3hw9/gradle-3.3/lib/jcip-annotations-1.0.jar
7f63ba15d000-7f63ba161000 r--s 00027000 08:06 1738114                    /home/linuxp/.gradle/wrapper/dists/gradle-3.3-all/55gk2rcmfc6p2dg9u9ohc3hw9/gradle-3.3/lib/commons-io-2.2.jar
7f63ba161000-7f63ba166000 r--s 00038000 08:06 1738111                    /home/linuxp/.gradle/wrapper/dists/gradle-3.3-all/55gk2rcmfc6p2dg9u9ohc3hw9/gradle-3.3/lib/asm-all-5.1.jar
7f63ba166000-7f63ba167000 r--s 00001000 08:06 1738107                    /home/linuxp/.gradle/wrapper/dists/gradle-3.3-all/55gk2rcmfc6p2dg9u9ohc3hw9/gradle-3.3/lib/gradle-process-services-3.3.jar
7f63ba167000-7f63ba169000 r--s 00000000 08:06 1738097                    /home/linuxp/.gradle/wrapper/dists/gradle-3.3-all/55gk2rcmfc6p2dg9u9ohc3hw9/gradle-3.3/lib/gradle-jvm-services-3.3.jar
7f63ba169000-7f63ba16a000 r--s 00000000 08:06 1738261                    /home/linuxp/.gradle/wrapper/dists/gradle-3.3-all/55gk2rcmfc6p2dg9u9ohc3hw9/gradle-3.3/lib/gradle-version-info-3.3.jar
7f63ba16a000-7f63ba16f000 r--s 00041000 08:06 1738106                    /home/linuxp/.gradle/wrapper/dists/gradle-3.3-all/55gk2rcmfc6p2dg9u9ohc3hw9/gradle-3.3/lib/commons-lang-2.6.jar
7f63ba16f000-7f63ba170000 r--s 00007000 08:06 1738104                    /home/linuxp/.gradle/wrapper/dists/gradle-3.3-all/55gk2rcmfc6p2dg9u9ohc3hw9/gradle-3.3/lib/slf4j-api-1.7.10.jar
7f63ba170000-7f63ba232000 rw-p 00000000 00:00 0 
7f63ba232000-7f63ba235000 ---p 00000000 00:00 0 
7f63ba235000-7f63ba337000 rw-p 00000000 00:00 0 
7f63ba337000-7f63ba338000 r--s 00004000 08:06 1738129                    /home/linuxp/.gradle/wrapper/dists/gradle-3.3-all/55gk2rcmfc6p2dg9u9ohc3hw9/gradle-3.3/lib/ant-launcher-1.9.6.jar
7f63ba338000-7f63ba341000 r--s 00042000 08:06 1738096                    /home/linuxp/.gradle/wrapper/dists/gradle-3.3-all/55gk2rcmfc6p2dg9u9ohc3hw9/gradle-3.3/lib/gradle-base-services-3.3.jar
7f63ba341000-7f63ba34e000 r--s 0005c000 08:06 1738093                    /home/linuxp/.gradle/wrapper/dists/gradle-3.3-all/55gk2rcmfc6p2dg9u9ohc3hw9/gradle-3.3/lib/gradle-launcher-3.3.jar
7f63ba34e000-7f63ba356000 rw-s 00000000 08:06 1051375                    /tmp/hsperfdata_linuxp/9306
7f63ba356000-7f63ba357000 rw-p 00000000 00:00 0 
7f63ba357000-7f63ba358000 ---p 00000000 00:00 0 
7f63ba358000-7f63ba359000 rw-p 00000000 00:00 0 
7f63ba359000-7f63ba35a000 r--p 00022000 08:06 608634                     /lib/x86_64-linux-gnu/ld-2.19.so
7f63ba35a000-7f63ba35b000 rw-p 00023000 08:06 608634                     /lib/x86_64-linux-gnu/ld-2.19.so
7f63ba35b000-7f63ba35c000 rw-p 00000000 00:00 0 
7fffbae3e000-7fffbae60000 rw-p 00000000 00:00 0                          [stack]
7fffbaf19000-7fffbaf1c000 r--p 00000000 00:00 0                          [vvar]
7fffbaf1c000-7fffbaf1e000 r-xp 00000000 00:00 0                          [vdso]
ffffffffff600000-ffffffffff601000 r-xp 00000000 00:00 0                  [vsyscall]

VM Arguments:
jvm_args: -Xmx1536m -Dfile.encoding=UTF-8 -Duser.country=ES -Duser.language=es -Duser.variant 
java_command: org.gradle.launcher.daemon.bootstrap.GradleDaemon 3.3
java_class_path (initial): /home/linuxp/.gradle/wrapper/dists/gradle-3.3-all/55gk2rcmfc6p2dg9u9ohc3hw9/gradle-3.3/lib/gradle-launcher-3.3.jar
Launcher Type: SUN_STANDARD

Environment Variables:
JAVA_HOME=/usr/lib/jvm/java-8-oracle
PATH=/home/linuxp/.rvm/gems/ruby-2.4.0/bin:/home/linuxp/.rvm/gems/ruby-2.4.0@global/bin:/home/linuxp/.rvm/rubies/ruby-2.4.0/bin:/usr/local/sbin:/usr/local/bin:/usr/sbin:/usr/bin:/sbin:/bin:/usr/games:/usr/local/games:/usr/lib/jvm/java-8-oracle/bin:/usr/lib/jvm/java-8-oracle/db/bin:/usr/lib/jvm/java-8-oracle/jre/bin:/home/linuxp/.rvm/bin:/usr/lib/jvm/java-8-oracle/bin:/usr/lib/jvm/java-8-oracle/db/bin:/usr/lib/jvm/java-8-oracle/jre/bin:/home/linuxp/.rvm/bin:/home/linuxp/.rvm/bin
LD_LIBRARY_PATH=.:
SHELL=/bin/bash
DISPLAY=:0

Signal Handlers:
SIGSEGV: [libjvm.so+0xad01e0], sa_mask[0]=11111111011111111101111111111110, sa_flags=SA_RESTART|SA_SIGINFO
SIGBUS: [libjvm.so+0xad01e0], sa_mask[0]=11111111011111111101111111111110, sa_flags=SA_RESTART|SA_SIGINFO
SIGFPE: [libjvm.so+0x927fb0], sa_mask[0]=11111111011111111101111111111110, sa_flags=SA_RESTART|SA_SIGINFO
SIGPIPE: [libjvm.so+0x927fb0], sa_mask[0]=11111111011111111101111111111110, sa_flags=SA_RESTART|SA_SIGINFO
SIGXFSZ: [libjvm.so+0x927fb0], sa_mask[0]=11111111011111111101111111111110, sa_flags=SA_RESTART|SA_SIGINFO
SIGILL: [libjvm.so+0x927fb0], sa_mask[0]=11111111011111111101111111111110, sa_flags=SA_RESTART|SA_SIGINFO
SIGUSR1: SIG_DFL, sa_mask[0]=00000000000000000000000000000000, sa_flags=none
SIGUSR2: [libjvm.so+0x9297f0], sa_mask[0]=00100000000000000000000000000000, sa_flags=SA_RESTART|SA_SIGINFO
SIGHUP: [libjvm.so+0x92abf0], sa_mask[0]=11111111011111111101111111111110, sa_flags=SA_RESTART|SA_SIGINFO
SIGINT: [libjvm.so+0x92abf0], sa_mask[0]=11111111011111111101111111111110, sa_flags=SA_RESTART|SA_SIGINFO
SIGTERM: [libjvm.so+0x92abf0], sa_mask[0]=11111111011111111101111111111110, sa_flags=SA_RESTART|SA_SIGINFO
SIGQUIT: [libjvm.so+0x92abf0], sa_mask[0]=11111111011111111101111111111110, sa_flags=SA_RESTART|SA_SIGINFO


---------------  S Y S T E M  ---------------

OS:DISTRIB_ID=Ubuntu
DISTRIB_RELEASE=14.04
DISTRIB_CODENAME=trusty
DISTRIB_DESCRIPTION="Ubuntu 14.04.5 LTS"

uname:Linux 4.4.0-116-generic #140~14.04.1-Ubuntu SMP Fri Feb 16 09:25:20 UTC 2018 x86_64
libc:glibc 2.19 NPTL 2.19 
rlimit: STACK 8192k, CORE 0k, NPROC 23205, NOFILE 4096, AS infinity
load average:5,68 4,61 3,50

/proc/meminfo:
MemTotal:        5966152 kB
MemFree:          131100 kB
MemAvailable:      81956 kB
Buffers:           13040 kB
Cached:           422580 kB
SwapCached:            0 kB
Active:          5218224 kB
Inactive:         372016 kB
Active(anon):    5168244 kB
Inactive(anon):   330736 kB
Active(file):      49980 kB
Inactive(file):    41280 kB
Unevictable:         568 kB
Mlocked:             568 kB
SwapTotal:             0 kB
SwapFree:              0 kB
Dirty:               784 kB
Writeback:             0 kB
AnonPages:       5155380 kB
Mapped:           176876 kB
Shmem:            344168 kB
Slab:             109216 kB
SReclaimable:      68144 kB
SUnreclaim:        41072 kB
KernelStack:       11776 kB
PageTables:        58680 kB
NFS_Unstable:          0 kB
Bounce:                0 kB
WritebackTmp:          0 kB
CommitLimit:     2983076 kB
Committed_AS:   10591012 kB
VmallocTotal:   34359738367 kB
VmallocUsed:           0 kB
VmallocChunk:          0 kB
HardwareCorrupted:     0 kB
AnonHugePages:   2650112 kB
CmaTotal:              0 kB
CmaFree:               0 kB
HugePages_Total:       0
HugePages_Free:        0
HugePages_Rsvd:        0
HugePages_Surp:        0
Hugepagesize:       2048 kB
DirectMap4k:      161088 kB
DirectMap2M:     5986304 kB


CPU:total 4 (initial active 4) (2 cores per cpu, 2 threads per core) family 6 model 58 stepping 9, cmov, cx8, fxsr, mmx, sse, sse2, sse3, ssse3, sse4.1, sse4.2, popcnt, avx, aes, clmul, erms, ht, tsc, tscinvbit, tscinv

/proc/cpuinfo:
processor	: 0
vendor_id	: GenuineIntel
cpu family	: 6
model		: 58
model name	: Intel(R) Core(TM) i5-3210M CPU @ 2.50GHz
stepping	: 9
microcode	: 0x15
cpu MHz		: 1643.261
cache size	: 3072 KB
physical id	: 0
siblings	: 4
core id		: 0
cpu cores	: 2
apicid		: 0
initial apicid	: 0
fpu		: yes
fpu_exception	: yes
cpuid level	: 13
wp		: yes
flags		: fpu vme de pse tsc msr pae mce cx8 apic sep mtrr pge mca cmov pat pse36 clflush dts acpi mmx fxsr sse sse2 ss ht tm pbe syscall nx rdtscp lm constant_tsc arch_perfmon pebs bts rep_good nopl xtopology nonstop_tsc aperfmperf eagerfpu pni pclmulqdq dtes64 monitor ds_cpl vmx est tm2 ssse3 cx16 xtpr pdcm pcid sse4_1 sse4_2 x2apic popcnt tsc_deadline_timer aes xsave avx f16c rdrand lahf_lm epb retpoline kaiser tpr_shadow vnmi flexpriority ept vpid fsgsbase smep erms xsaveopt dtherm ida arat pln pts
bugs		: cpu_meltdown spectre_v1 spectre_v2
bogomips	: 4988.94
clflush size	: 64
cache_alignment	: 64
address sizes	: 36 bits physical, 48 bits virtual
power management:

processor	: 1
vendor_id	: GenuineIntel
cpu family	: 6
model		: 58
model name	: Intel(R) Core(TM) i5-3210M CPU @ 2.50GHz
stepping	: 9
microcode	: 0x15
cpu MHz		: 1645.214
cache size	: 3072 KB
physical id	: 0
siblings	: 4
core id		: 0
cpu cores	: 2
apicid		: 1
initial apicid	: 1
fpu		: yes
fpu_exception	: yes
cpuid level	: 13
wp		: yes
flags		: fpu vme de pse tsc msr pae mce cx8 apic sep mtrr pge mca cmov pat pse36 clflush dts acpi mmx fxsr sse sse2 ss ht tm pbe syscall nx rdtscp lm constant_tsc arch_perfmon pebs bts rep_good nopl xtopology nonstop_tsc aperfmperf eagerfpu pni pclmulqdq dtes64 monitor ds_cpl vmx est tm2 ssse3 cx16 xtpr pdcm pcid sse4_1 sse4_2 x2apic popcnt tsc_deadline_timer aes xsave avx f16c rdrand lahf_lm epb retpoline kaiser tpr_shadow vnmi flexpriority ept vpid fsgsbase smep erms xsaveopt dtherm ida arat pln pts
bugs		: cpu_meltdown spectre_v1 spectre_v2
bogomips	: 4988.94
clflush size	: 64
cache_alignment	: 64
address sizes	: 36 bits physical, 48 bits virtual
power management:

processor	: 2
vendor_id	: GenuineIntel
cpu family	: 6
model		: 58
model name	: Intel(R) Core(TM) i5-3210M CPU @ 2.50GHz
stepping	: 9
microcode	: 0x15
cpu MHz		: 1737.402
cache size	: 3072 KB
physical id	: 0
siblings	: 4
core id		: 1
cpu cores	: 2
apicid		: 2
initial apicid	: 2
fpu		: yes
fpu_exception	: yes
cpuid level	: 13
wp		: yes
flags		: fpu vme de pse tsc msr pae mce cx8 apic sep mtrr pge mca cmov pat pse36 clflush dts acpi mmx fxsr sse sse2 ss ht tm pbe syscall nx rdtscp lm constant_tsc arch_perfmon pebs bts rep_good nopl xtopology nonstop_tsc aperfmperf eagerfpu pni pclmulqdq dtes64 monitor ds_cpl vmx est tm2 ssse3 cx16 xtpr pdcm pcid sse4_1 sse4_2 x2apic popcnt tsc_deadline_timer aes xsave avx f16c rdrand lahf_lm epb retpoline kaiser tpr_shadow vnmi flexpriority ept vpid fsgsbase smep erms xsaveopt dtherm ida arat pln pts
bugs		: cpu_meltdown spectre_v1 spectre_v2
bogomips	: 4988.94
clflush size	: 64
cache_alignment	: 64
address sizes	: 36 bits physical, 48 bits virtual
power management:

processor	: 3
vendor_id	: GenuineIntel
cpu family	: 6
model		: 58
model name	: Intel(R) Core(TM) i5-3210M CPU @ 2.50GHz
stepping	: 9
microcode	: 0x15
cpu MHz		: 1688.085
cache size	: 3072 KB
physical id	: 0
siblings	: 4
core id		: 1
cpu cores	: 2
apicid		: 3
initial apicid	: 3
fpu		: yes
fpu_exception	: yes
cpuid level	: 13
wp		: yes
flags		: fpu vme de pse tsc msr pae mce cx8 apic sep mtrr pge mca cmov pat pse36 clflush dts acpi mmx fxsr sse sse2 ss ht tm pbe syscall nx rdtscp lm constant_tsc arch_perfmon pebs bts rep_good nopl xtopology nonstop_tsc aperfmperf eagerfpu pni pclmulqdq dtes64 monitor ds_cpl vmx est tm2 ssse3 cx16 xtpr pdcm pcid sse4_1 sse4_2 x2apic popcnt tsc_deadline_timer aes xsave avx f16c rdrand lahf_lm epb retpoline kaiser tpr_shadow vnmi flexpriority ept vpid fsgsbase smep erms xsaveopt dtherm ida arat pln pts
bugs		: cpu_meltdown spectre_v1 spectre_v2
bogomips	: 4988.94
clflush size	: 64
cache_alignment	: 64
address sizes	: 36 bits physical, 48 bits virtual
power management:



Memory: 4k page, physical 5966152k(131100k free), swap 0k(0k free)

vm_info: Java HotSpot(TM) 64-Bit Server VM (25.161-b12) for linux-amd64 JRE (1.8.0_161-b12), built on Dec 19 2017 16:12:43 by "java_re" with gcc 4.3.0 20080428 (Red Hat 4.3.0-8)

time: Wed Feb 28 19:34:12 2018
elapsed time: 105 seconds (0d 0h 1m 45s)

